%YAML 1.1
%TAG !u! tag:unity3d.com,2011:
--- !u!1 &3376997377535829582
GameObject:
  m_ObjectHideFlags: 0
  m_CorrespondingSourceObject: {fileID: 0}
  m_PrefabInstance: {fileID: 0}
  m_PrefabAsset: {fileID: 0}
  serializedVersion: 6
  m_Component:
  - component: {fileID: 3376997377535829577}
  - component: {fileID: 4493731166380960416}
  m_Layer: 0
  m_Name: DeathEffect
  m_TagString: Untagged
  m_Icon: {fileID: 0}
  m_NavMeshLayer: 0
  m_StaticEditorFlags: 0
  m_IsActive: 1
--- !u!4 &3376997377535829577
Transform:
  m_ObjectHideFlags: 0
  m_CorrespondingSourceObject: {fileID: 0}
  m_PrefabInstance: {fileID: 0}
  m_PrefabAsset: {fileID: 0}
  m_GameObject: {fileID: 3376997377535829582}
  m_LocalRotation: {x: -0.7071068, y: 0, z: 0, w: 0.7071068}
  m_LocalPosition: {x: 0, y: 0, z: 0}
  m_LocalScale: {x: 1, y: 1, z: 1}
  m_Children:
  - {fileID: 6457863941444672486}
  m_Father: {fileID: 0}
  m_RootOrder: 0
  m_LocalEulerAnglesHint: {x: -90, y: 0, z: 0}
--- !u!114 &4493731166380960416
MonoBehaviour:
  m_ObjectHideFlags: 0
  m_CorrespondingSourceObject: {fileID: 0}
  m_PrefabInstance: {fileID: 0}
  m_PrefabAsset: {fileID: 0}
  m_GameObject: {fileID: 3376997377535829582}
  m_Enabled: 1
  m_EditorHideFlags: 0
  m_Script: {fileID: 11500000, guid: 911bf2c47f69926408942381431b56e4, type: 3}
  m_Name: 
  m_EditorClassIdentifier: 
  lifetime: 1
--- !u!1001 &6453585267819298284
PrefabInstance:
  m_ObjectHideFlags: 0
  serializedVersion: 2
  m_Modification:
    m_TransformParent: {fileID: 3376997377535829577}
    m_Modifications:
    - target: {fileID: 1889919486439536, guid: 35ad08272de78064cbd645a70f31f454, type: 3}
      propertyPath: m_Name
      value: SoulGenericDeath
      objectReference: {fileID: 0}
    - target: {fileID: 4869263840847370, guid: 35ad08272de78064cbd645a70f31f454, type: 3}
      propertyPath: m_RootOrder
      value: 0
      objectReference: {fileID: 0}
    - target: {fileID: 4869263840847370, guid: 35ad08272de78064cbd645a70f31f454, type: 3}
      propertyPath: m_LocalPosition.x
      value: 0
      objectReference: {fileID: 0}
    - target: {fileID: 4869263840847370, guid: 35ad08272de78064cbd645a70f31f454, type: 3}
      propertyPath: m_LocalPosition.y
      value: 0
      objectReference: {fileID: 0}
    - target: {fileID: 4869263840847370, guid: 35ad08272de78064cbd645a70f31f454, type: 3}
      propertyPath: m_LocalPosition.z
      value: 0
      objectReference: {fileID: 0}
    - target: {fileID: 4869263840847370, guid: 35ad08272de78064cbd645a70f31f454, type: 3}
      propertyPath: m_LocalRotation.w
      value: 0.7071068
      objectReference: {fileID: 0}
    - target: {fileID: 4869263840847370, guid: 35ad08272de78064cbd645a70f31f454, type: 3}
      propertyPath: m_LocalRotation.x
      value: -0.7071068
      objectReference: {fileID: 0}
    - target: {fileID: 4869263840847370, guid: 35ad08272de78064cbd645a70f31f454, type: 3}
      propertyPath: m_LocalRotation.y
      value: 0
      objectReference: {fileID: 0}
    - target: {fileID: 4869263840847370, guid: 35ad08272de78064cbd645a70f31f454, type: 3}
      propertyPath: m_LocalRotation.z
      value: 0
      objectReference: {fileID: 0}
    - target: {fileID: 4869263840847370, guid: 35ad08272de78064cbd645a70f31f454, type: 3}
      propertyPath: m_LocalEulerAnglesHint.x
      value: -90
      objectReference: {fileID: 0}
    - target: {fileID: 4869263840847370, guid: 35ad08272de78064cbd645a70f31f454, type: 3}
      propertyPath: m_LocalEulerAnglesHint.y
      value: 0
      objectReference: {fileID: 0}
    - target: {fileID: 4869263840847370, guid: 35ad08272de78064cbd645a70f31f454, type: 3}
      propertyPath: m_LocalEulerAnglesHint.z
      value: 0
      objectReference: {fileID: 0}
    - target: {fileID: 82200656418675434, guid: 35ad08272de78064cbd645a70f31f454,
        type: 3}
      propertyPath: m_Enabled
      value: 0
      objectReference: {fileID: 0}
    - target: {fileID: 199429231492443314, guid: 35ad08272de78064cbd645a70f31f454,
        type: 3}
      propertyPath: m_Materials.Array.size
      value: 1
      objectReference: {fileID: 0}
    - target: {fileID: 199674684244570974, guid: 35ad08272de78064cbd645a70f31f454,
        type: 3}
      propertyPath: m_Materials.Array.size
      value: 1
      objectReference: {fileID: 0}
    - target: {fileID: 199859227112210420, guid: 35ad08272de78064cbd645a70f31f454,
        type: 3}
      propertyPath: m_Materials.Array.size
      value: 1
      objectReference: {fileID: 0}
    m_RemovedComponents: []
  m_SourcePrefab: {fileID: 100100000, guid: 35ad08272de78064cbd645a70f31f454, type: 3}
--- !u!4 &6457863941444672486 stripped
Transform:
  m_CorrespondingSourceObject: {fileID: 4869263840847370, guid: 35ad08272de78064cbd645a70f31f454,
    type: 3}
  m_PrefabInstance: {fileID: 6453585267819298284}
  m_PrefabAsset: {fileID: 0}
