%YAML 1.1
%TAG !u! tag:unity3d.com,2011:
--- !u!1001 &4325193111754748014
PrefabInstance:
  m_ObjectHideFlags: 0
  serializedVersion: 2
  m_Modification:
    m_TransformParent: {fileID: 0}
    m_Modifications:
    - target: {fileID: 3895503979688935082, guid: e82825d83f8d1dd47aa6703226f1f3a1,
        type: 3}
      propertyPath: selectable
      value: 1
      objectReference: {fileID: 0}
    - target: {fileID: 6770569890617845182, guid: e82825d83f8d1dd47aa6703226f1f3a1,
        type: 3}
      propertyPath: m_Color.a
      value: 1
      objectReference: {fileID: 0}
    - target: {fileID: 6770569890617845182, guid: e82825d83f8d1dd47aa6703226f1f3a1,
        type: 3}
      propertyPath: m_Color.b
      value: 0.5
      objectReference: {fileID: 0}
    - target: {fileID: 6770569890617845182, guid: e82825d83f8d1dd47aa6703226f1f3a1,
        type: 3}
      propertyPath: m_Color.g
      value: 0.34782255
      objectReference: {fileID: 0}
    - target: {fileID: 6770569890617845182, guid: e82825d83f8d1dd47aa6703226f1f3a1,
        type: 3}
      propertyPath: m_Color.r
      value: 0.077830195
      objectReference: {fileID: 0}
    - target: {fileID: 7737067466117970947, guid: e82825d83f8d1dd47aa6703226f1f3a1,
        type: 3}
      propertyPath: m_RootOrder
      value: 0
      objectReference: {fileID: 0}
    - target: {fileID: 7737067466117970947, guid: e82825d83f8d1dd47aa6703226f1f3a1,
        type: 3}
      propertyPath: m_LocalPosition.x
      value: 0
      objectReference: {fileID: 0}
    - target: {fileID: 7737067466117970947, guid: e82825d83f8d1dd47aa6703226f1f3a1,
        type: 3}
      propertyPath: m_LocalPosition.y
      value: 0
      objectReference: {fileID: 0}
    - target: {fileID: 7737067466117970947, guid: e82825d83f8d1dd47aa6703226f1f3a1,
        type: 3}
      propertyPath: m_LocalPosition.z
      value: 0
      objectReference: {fileID: 0}
    - target: {fileID: 7737067466117970947, guid: e82825d83f8d1dd47aa6703226f1f3a1,
        type: 3}
      propertyPath: m_LocalRotation.w
      value: 1
      objectReference: {fileID: 0}
    - target: {fileID: 7737067466117970947, guid: e82825d83f8d1dd47aa6703226f1f3a1,
        type: 3}
      propertyPath: m_LocalRotation.x
      value: 0
      objectReference: {fileID: 0}
    - target: {fileID: 7737067466117970947, guid: e82825d83f8d1dd47aa6703226f1f3a1,
        type: 3}
      propertyPath: m_LocalRotation.y
      value: 0
      objectReference: {fileID: 0}
    - target: {fileID: 7737067466117970947, guid: e82825d83f8d1dd47aa6703226f1f3a1,
        type: 3}
      propertyPath: m_LocalRotation.z
      value: 0
      objectReference: {fileID: 0}
    - target: {fileID: 7737067466117970947, guid: e82825d83f8d1dd47aa6703226f1f3a1,
        type: 3}
      propertyPath: m_LocalEulerAnglesHint.x
      value: 0
      objectReference: {fileID: 0}
    - target: {fileID: 7737067466117970947, guid: e82825d83f8d1dd47aa6703226f1f3a1,
        type: 3}
      propertyPath: m_LocalEulerAnglesHint.y
      value: 0
      objectReference: {fileID: 0}
    - target: {fileID: 7737067466117970947, guid: e82825d83f8d1dd47aa6703226f1f3a1,
        type: 3}
      propertyPath: m_LocalEulerAnglesHint.z
      value: 0
      objectReference: {fileID: 0}
    - target: {fileID: 7737067466117970951, guid: e82825d83f8d1dd47aa6703226f1f3a1,
        type: 3}
      propertyPath: m_Name
      value: Grid_Cell_Team1
      objectReference: {fileID: 0}
    m_RemovedComponents: []
  m_SourcePrefab: {fileID: 100100000, guid: e82825d83f8d1dd47aa6703226f1f3a1, type: 3}
