%YAML 1.1
%TAG !u! tag:unity3d.com,2011:
--- !u!1001 &2451619963190057507
PrefabInstance:
  m_ObjectHideFlags: 0
  serializedVersion: 2
  m_Modification:
    m_TransformParent: {fileID: 0}
    m_Modifications:
    - target: {fileID: -6903062633290590077, guid: 665d8e131c32f294886340f66b6ac61d,
        type: 3}
      propertyPath: actions.Array.size
      value: 5
      objectReference: {fileID: 0}
    - target: {fileID: 56741515866650287, guid: 665d8e131c32f294886340f66b6ac61d,
        type: 3}
      propertyPath: m_Size.x
      value: 3.93
      objectReference: {fileID: 0}
    - target: {fileID: 56741515866650287, guid: 665d8e131c32f294886340f66b6ac61d,
        type: 3}
      propertyPath: m_Size.y
      value: 3.93
      objectReference: {fileID: 0}
    - target: {fileID: 56741515866650287, guid: 665d8e131c32f294886340f66b6ac61d,
        type: 3}
      propertyPath: m_Sprite
      value: 
      objectReference: {fileID: 21300000, guid: 057b55f71f5ba2b4ca335efeb0fabcc6,
        type: 3}
    - target: {fileID: 56741515866650287, guid: 665d8e131c32f294886340f66b6ac61d,
        type: 3}
      propertyPath: m_WasSpriteAssigned
      value: 1
      objectReference: {fileID: 0}
    - target: {fileID: 491801535776370888, guid: 665d8e131c32f294886340f66b6ac61d,
        type: 3}
      propertyPath: m_Layer
      value: 9
      objectReference: {fileID: 0}
    - target: {fileID: 821585749851927877, guid: 665d8e131c32f294886340f66b6ac61d,
        type: 3}
      propertyPath: image
      value: 
      objectReference: {fileID: 21300000, guid: 4343834e817a5df47bbdb64c434f5b35,
        type: 3}
    - target: {fileID: 925678190416448283, guid: 665d8e131c32f294886340f66b6ac61d,
        type: 3}
      propertyPath: m_Layer
      value: 9
      objectReference: {fileID: 0}
    - target: {fileID: 944492574298809671, guid: 665d8e131c32f294886340f66b6ac61d,
        type: 3}
      propertyPath: m_Layer
      value: 9
      objectReference: {fileID: 0}
    - target: {fileID: 1189686826025149159, guid: 665d8e131c32f294886340f66b6ac61d,
        type: 3}
      propertyPath: m_Layer
      value: 9
      objectReference: {fileID: 0}
    - target: {fileID: 1366285851563923046, guid: 665d8e131c32f294886340f66b6ac61d,
        type: 3}
      propertyPath: m_Layer
      value: 9
      objectReference: {fileID: 0}
    - target: {fileID: 1389071891321683618, guid: 665d8e131c32f294886340f66b6ac61d,
        type: 3}
      propertyPath: m_Layer
      value: 9
      objectReference: {fileID: 0}
    - target: {fileID: 1437289371240433697, guid: 665d8e131c32f294886340f66b6ac61d,
        type: 3}
      propertyPath: m_Layer
      value: 9
      objectReference: {fileID: 0}
    - target: {fileID: 1463801726094610836, guid: 665d8e131c32f294886340f66b6ac61d,
        type: 3}
      propertyPath: m_Layer
      value: 9
      objectReference: {fileID: 0}
    - target: {fileID: 1506845174528256235, guid: 665d8e131c32f294886340f66b6ac61d,
        type: 3}
      propertyPath: configuration.team
      value: 1
      objectReference: {fileID: 0}
    - target: {fileID: 2066952800716547771, guid: 665d8e131c32f294886340f66b6ac61d,
        type: 3}
      propertyPath: outlineColor.b
      value: 0
      objectReference: {fileID: 0}
    - target: {fileID: 2066952800716547771, guid: 665d8e131c32f294886340f66b6ac61d,
        type: 3}
      propertyPath: outlineColor.g
      value: 0.19607843
      objectReference: {fileID: 0}
    - target: {fileID: 2066952800716547771, guid: 665d8e131c32f294886340f66b6ac61d,
        type: 3}
      propertyPath: outlineColor.r
      value: 1
      objectReference: {fileID: 0}
    - target: {fileID: 2117098637586348105, guid: 665d8e131c32f294886340f66b6ac61d,
        type: 3}
      propertyPath: m_Layer
      value: 9
      objectReference: {fileID: 0}
    - target: {fileID: 2149255382054971770, guid: 665d8e131c32f294886340f66b6ac61d,
        type: 3}
      propertyPath: m_Layer
      value: 9
      objectReference: {fileID: 0}
    - target: {fileID: 2175080398472835281, guid: 665d8e131c32f294886340f66b6ac61d,
        type: 3}
      propertyPath: m_Name
      value: Melee_Team2
      objectReference: {fileID: 0}
    - target: {fileID: 2175080398472835281, guid: 665d8e131c32f294886340f66b6ac61d,
        type: 3}
      propertyPath: m_Layer
      value: 9
      objectReference: {fileID: 0}
    - target: {fileID: 2175080398472835282, guid: 665d8e131c32f294886340f66b6ac61d,
        type: 3}
      propertyPath: _data.team
      value: 1
      objectReference: {fileID: 0}
    - target: {fileID: 2175080398472835282, guid: 665d8e131c32f294886340f66b6ac61d,
        type: 3}
      propertyPath: _data.whatIsEnemy.m_Bits
      value: 4096
      objectReference: {fileID: 0}
    - target: {fileID: 2175080398472835286, guid: 665d8e131c32f294886340f66b6ac61d,
        type: 3}
      propertyPath: m_RootOrder
      value: 0
      objectReference: {fileID: 0}
    - target: {fileID: 2175080398472835286, guid: 665d8e131c32f294886340f66b6ac61d,
        type: 3}
      propertyPath: m_LocalPosition.x
      value: 0
      objectReference: {fileID: 0}
    - target: {fileID: 2175080398472835286, guid: 665d8e131c32f294886340f66b6ac61d,
        type: 3}
      propertyPath: m_LocalPosition.y
      value: 0
      objectReference: {fileID: 0}
    - target: {fileID: 2175080398472835286, guid: 665d8e131c32f294886340f66b6ac61d,
        type: 3}
      propertyPath: m_LocalPosition.z
      value: -3.75
      objectReference: {fileID: 0}
    - target: {fileID: 2175080398472835286, guid: 665d8e131c32f294886340f66b6ac61d,
        type: 3}
      propertyPath: m_LocalRotation.w
      value: 0
      objectReference: {fileID: 0}
    - target: {fileID: 2175080398472835286, guid: 665d8e131c32f294886340f66b6ac61d,
        type: 3}
      propertyPath: m_LocalRotation.x
      value: 0
      objectReference: {fileID: 0}
    - target: {fileID: 2175080398472835286, guid: 665d8e131c32f294886340f66b6ac61d,
        type: 3}
      propertyPath: m_LocalRotation.y
      value: 1
      objectReference: {fileID: 0}
    - target: {fileID: 2175080398472835286, guid: 665d8e131c32f294886340f66b6ac61d,
        type: 3}
      propertyPath: m_LocalRotation.z
      value: 0
      objectReference: {fileID: 0}
    - target: {fileID: 2175080398472835286, guid: 665d8e131c32f294886340f66b6ac61d,
        type: 3}
      propertyPath: m_LocalEulerAnglesHint.x
      value: 0
      objectReference: {fileID: 0}
    - target: {fileID: 2175080398472835286, guid: 665d8e131c32f294886340f66b6ac61d,
        type: 3}
      propertyPath: m_LocalEulerAnglesHint.y
      value: 180
      objectReference: {fileID: 0}
    - target: {fileID: 2175080398472835286, guid: 665d8e131c32f294886340f66b6ac61d,
        type: 3}
      propertyPath: m_LocalEulerAnglesHint.z
      value: 0
      objectReference: {fileID: 0}
    - target: {fileID: 2675381200596554997, guid: 665d8e131c32f294886340f66b6ac61d,
        type: 3}
      propertyPath: m_Layer
      value: 9
      objectReference: {fileID: 0}
    - target: {fileID: 3148274505273064745, guid: 665d8e131c32f294886340f66b6ac61d,
        type: 3}
      propertyPath: m_audioClip
      value: 
      objectReference: {fileID: 0}
    - target: {fileID: 3148274505273064745, guid: 665d8e131c32f294886340f66b6ac61d,
        type: 3}
      propertyPath: m_PlayOnAwake
      value: 0
      objectReference: {fileID: 0}
    - target: {fileID: 4056477716461032376, guid: 665d8e131c32f294886340f66b6ac61d,
        type: 3}
      propertyPath: m_Layer
      value: 9
      objectReference: {fileID: 0}
    - target: {fileID: 4056477716461032376, guid: 665d8e131c32f294886340f66b6ac61d,
        type: 3}
      propertyPath: m_IsActive
      value: 1
      objectReference: {fileID: 0}
    - target: {fileID: 4732722634880447393, guid: 665d8e131c32f294886340f66b6ac61d,
        type: 3}
      propertyPath: m_Layer
      value: 9
      objectReference: {fileID: 0}
    - target: {fileID: 4971567583023519250, guid: 665d8e131c32f294886340f66b6ac61d,
        type: 3}
      propertyPath: m_Layer
      value: 9
      objectReference: {fileID: 0}
    - target: {fileID: 5033050290972331391, guid: 665d8e131c32f294886340f66b6ac61d,
        type: 3}
      propertyPath: m_IsContraintActive
      value: 1
      objectReference: {fileID: 0}
    - target: {fileID: 5149404018862669825, guid: 665d8e131c32f294886340f66b6ac61d,
        type: 3}
      propertyPath: m_Layer
      value: 9
      objectReference: {fileID: 0}
    - target: {fileID: 5149404018862669827, guid: 665d8e131c32f294886340f66b6ac61d,
        type: 3}
      propertyPath: m_Layer
      value: 9
      objectReference: {fileID: 0}
    - target: {fileID: 5149404018862669829, guid: 665d8e131c32f294886340f66b6ac61d,
        type: 3}
      propertyPath: m_Layer
      value: 9
      objectReference: {fileID: 0}
    - target: {fileID: 5149404018862669831, guid: 665d8e131c32f294886340f66b6ac61d,
        type: 3}
      propertyPath: m_Layer
      value: 9
      objectReference: {fileID: 0}
    - target: {fileID: 5149404018862669833, guid: 665d8e131c32f294886340f66b6ac61d,
        type: 3}
      propertyPath: m_Layer
      value: 9
      objectReference: {fileID: 0}
    - target: {fileID: 5149404018862669835, guid: 665d8e131c32f294886340f66b6ac61d,
        type: 3}
      propertyPath: m_Layer
      value: 9
      objectReference: {fileID: 0}
    - target: {fileID: 5149404018862669837, guid: 665d8e131c32f294886340f66b6ac61d,
        type: 3}
      propertyPath: m_Layer
      value: 9
      objectReference: {fileID: 0}
    - target: {fileID: 5149404018862669839, guid: 665d8e131c32f294886340f66b6ac61d,
        type: 3}
      propertyPath: m_Layer
      value: 9
      objectReference: {fileID: 0}
    - target: {fileID: 5149404018862669841, guid: 665d8e131c32f294886340f66b6ac61d,
        type: 3}
      propertyPath: m_Layer
      value: 9
      objectReference: {fileID: 0}
    - target: {fileID: 5149404018862669843, guid: 665d8e131c32f294886340f66b6ac61d,
        type: 3}
      propertyPath: m_Layer
      value: 9
      objectReference: {fileID: 0}
    - target: {fileID: 5149404018862669845, guid: 665d8e131c32f294886340f66b6ac61d,
        type: 3}
      propertyPath: m_Layer
      value: 9
      objectReference: {fileID: 0}
    - target: {fileID: 5149404018862669847, guid: 665d8e131c32f294886340f66b6ac61d,
        type: 3}
      propertyPath: m_Layer
      value: 9
      objectReference: {fileID: 0}
    - target: {fileID: 5149404018862669849, guid: 665d8e131c32f294886340f66b6ac61d,
        type: 3}
      propertyPath: m_Layer
      value: 9
      objectReference: {fileID: 0}
    - target: {fileID: 5149404018862669851, guid: 665d8e131c32f294886340f66b6ac61d,
        type: 3}
      propertyPath: m_Layer
      value: 9
      objectReference: {fileID: 0}
    - target: {fileID: 5149404018862669853, guid: 665d8e131c32f294886340f66b6ac61d,
        type: 3}
      propertyPath: m_Layer
      value: 9
      objectReference: {fileID: 0}
    - target: {fileID: 5149404018862669855, guid: 665d8e131c32f294886340f66b6ac61d,
        type: 3}
      propertyPath: m_Layer
      value: 9
      objectReference: {fileID: 0}
    - target: {fileID: 5149404018862669857, guid: 665d8e131c32f294886340f66b6ac61d,
        type: 3}
      propertyPath: m_Layer
      value: 9
      objectReference: {fileID: 0}
    - target: {fileID: 5149404018862669859, guid: 665d8e131c32f294886340f66b6ac61d,
        type: 3}
      propertyPath: m_Layer
      value: 9
      objectReference: {fileID: 0}
    - target: {fileID: 5149404018862669859, guid: 665d8e131c32f294886340f66b6ac61d,
        type: 3}
      propertyPath: m_IsActive
      value: 0
      objectReference: {fileID: 0}
    - target: {fileID: 5149404018862669861, guid: 665d8e131c32f294886340f66b6ac61d,
        type: 3}
      propertyPath: m_Layer
      value: 9
      objectReference: {fileID: 0}
    - target: {fileID: 5149404018862669863, guid: 665d8e131c32f294886340f66b6ac61d,
        type: 3}
      propertyPath: m_Layer
      value: 9
      objectReference: {fileID: 0}
    - target: {fileID: 5149404018862669865, guid: 665d8e131c32f294886340f66b6ac61d,
        type: 3}
      propertyPath: m_Layer
      value: 9
      objectReference: {fileID: 0}
    - target: {fileID: 5149404018862669867, guid: 665d8e131c32f294886340f66b6ac61d,
        type: 3}
      propertyPath: m_Layer
      value: 9
      objectReference: {fileID: 0}
    - target: {fileID: 5149404018862669869, guid: 665d8e131c32f294886340f66b6ac61d,
        type: 3}
      propertyPath: m_Layer
      value: 9
      objectReference: {fileID: 0}
    - target: {fileID: 5149404018862669869, guid: 665d8e131c32f294886340f66b6ac61d,
        type: 3}
      propertyPath: m_IsActive
      value: 1
      objectReference: {fileID: 0}
    - target: {fileID: 5149404018862669871, guid: 665d8e131c32f294886340f66b6ac61d,
        type: 3}
      propertyPath: m_Layer
      value: 9
      objectReference: {fileID: 0}
    - target: {fileID: 5149404018862669873, guid: 665d8e131c32f294886340f66b6ac61d,
        type: 3}
      propertyPath: m_Layer
      value: 9
      objectReference: {fileID: 0}
    - target: {fileID: 5149404018862669875, guid: 665d8e131c32f294886340f66b6ac61d,
        type: 3}
      propertyPath: m_Layer
      value: 9
      objectReference: {fileID: 0}
    - target: {fileID: 5149404018862669877, guid: 665d8e131c32f294886340f66b6ac61d,
        type: 3}
      propertyPath: m_Layer
      value: 9
      objectReference: {fileID: 0}
    - target: {fileID: 5149404018862669879, guid: 665d8e131c32f294886340f66b6ac61d,
        type: 3}
      propertyPath: m_Layer
      value: 9
      objectReference: {fileID: 0}
    - target: {fileID: 5149404018862669881, guid: 665d8e131c32f294886340f66b6ac61d,
        type: 3}
      propertyPath: m_Layer
      value: 9
      objectReference: {fileID: 0}
    - target: {fileID: 5149404018862669883, guid: 665d8e131c32f294886340f66b6ac61d,
        type: 3}
      propertyPath: m_Layer
      value: 9
      objectReference: {fileID: 0}
    - target: {fileID: 5149404018862669885, guid: 665d8e131c32f294886340f66b6ac61d,
        type: 3}
      propertyPath: m_Layer
      value: 9
      objectReference: {fileID: 0}
    - target: {fileID: 5149404018862669887, guid: 665d8e131c32f294886340f66b6ac61d,
        type: 3}
      propertyPath: m_Layer
      value: 9
      objectReference: {fileID: 0}
    - target: {fileID: 5149404018862669889, guid: 665d8e131c32f294886340f66b6ac61d,
        type: 3}
      propertyPath: m_Layer
      value: 9
      objectReference: {fileID: 0}
    - target: {fileID: 5149404018862669891, guid: 665d8e131c32f294886340f66b6ac61d,
        type: 3}
      propertyPath: m_Layer
      value: 9
      objectReference: {fileID: 0}
    - target: {fileID: 5149404018862669893, guid: 665d8e131c32f294886340f66b6ac61d,
        type: 3}
      propertyPath: m_Layer
      value: 9
      objectReference: {fileID: 0}
    - target: {fileID: 5149404018862669895, guid: 665d8e131c32f294886340f66b6ac61d,
        type: 3}
      propertyPath: m_Layer
      value: 9
      objectReference: {fileID: 0}
    - target: {fileID: 5149404018862669899, guid: 665d8e131c32f294886340f66b6ac61d,
        type: 3}
      propertyPath: m_Layer
      value: 9
      objectReference: {fileID: 0}
    - target: {fileID: 5149404018862669901, guid: 665d8e131c32f294886340f66b6ac61d,
        type: 3}
      propertyPath: m_Layer
      value: 9
      objectReference: {fileID: 0}
    - target: {fileID: 5149404018862669901, guid: 665d8e131c32f294886340f66b6ac61d,
        type: 3}
      propertyPath: m_IsActive
      value: 0
      objectReference: {fileID: 0}
    - target: {fileID: 5149404018862669903, guid: 665d8e131c32f294886340f66b6ac61d,
        type: 3}
      propertyPath: m_Layer
      value: 9
      objectReference: {fileID: 0}
    - target: {fileID: 5149404018862669905, guid: 665d8e131c32f294886340f66b6ac61d,
        type: 3}
      propertyPath: m_Layer
      value: 9
      objectReference: {fileID: 0}
    - target: {fileID: 5149404018862669907, guid: 665d8e131c32f294886340f66b6ac61d,
        type: 3}
      propertyPath: m_Layer
      value: 9
      objectReference: {fileID: 0}
    - target: {fileID: 5149404018862669911, guid: 665d8e131c32f294886340f66b6ac61d,
        type: 3}
      propertyPath: m_Layer
      value: 9
      objectReference: {fileID: 0}
    - target: {fileID: 5149404018862669913, guid: 665d8e131c32f294886340f66b6ac61d,
        type: 3}
      propertyPath: m_Layer
      value: 9
      objectReference: {fileID: 0}
    - target: {fileID: 5149404018862669915, guid: 665d8e131c32f294886340f66b6ac61d,
        type: 3}
      propertyPath: m_Layer
      value: 9
      objectReference: {fileID: 0}
    - target: {fileID: 5149404018862669917, guid: 665d8e131c32f294886340f66b6ac61d,
        type: 3}
      propertyPath: m_Layer
      value: 9
      objectReference: {fileID: 0}
    - target: {fileID: 5149404018862669919, guid: 665d8e131c32f294886340f66b6ac61d,
        type: 3}
      propertyPath: m_Layer
      value: 9
      objectReference: {fileID: 0}
    - target: {fileID: 5149404018862669921, guid: 665d8e131c32f294886340f66b6ac61d,
        type: 3}
      propertyPath: m_Layer
      value: 9
      objectReference: {fileID: 0}
    - target: {fileID: 5149404018862669923, guid: 665d8e131c32f294886340f66b6ac61d,
        type: 3}
      propertyPath: m_Layer
      value: 9
      objectReference: {fileID: 0}
    - target: {fileID: 5149404018862669925, guid: 665d8e131c32f294886340f66b6ac61d,
        type: 3}
      propertyPath: m_Layer
      value: 9
      objectReference: {fileID: 0}
    - target: {fileID: 5149404018862669927, guid: 665d8e131c32f294886340f66b6ac61d,
        type: 3}
      propertyPath: m_Layer
      value: 9
      objectReference: {fileID: 0}
    - target: {fileID: 5149404018862669929, guid: 665d8e131c32f294886340f66b6ac61d,
        type: 3}
      propertyPath: m_Layer
      value: 9
      objectReference: {fileID: 0}
    - target: {fileID: 5149404018862669931, guid: 665d8e131c32f294886340f66b6ac61d,
        type: 3}
      propertyPath: m_Layer
      value: 9
      objectReference: {fileID: 0}
    - target: {fileID: 5149404018862669933, guid: 665d8e131c32f294886340f66b6ac61d,
        type: 3}
      propertyPath: m_Layer
      value: 9
      objectReference: {fileID: 0}
    - target: {fileID: 5149404018862669935, guid: 665d8e131c32f294886340f66b6ac61d,
        type: 3}
      propertyPath: m_Layer
      value: 9
      objectReference: {fileID: 0}
    - target: {fileID: 5149404018862669937, guid: 665d8e131c32f294886340f66b6ac61d,
        type: 3}
      propertyPath: m_Layer
      value: 9
      objectReference: {fileID: 0}
    - target: {fileID: 5149404018862669939, guid: 665d8e131c32f294886340f66b6ac61d,
        type: 3}
      propertyPath: m_Layer
      value: 9
      objectReference: {fileID: 0}
    - target: {fileID: 5149404018862669941, guid: 665d8e131c32f294886340f66b6ac61d,
        type: 3}
      propertyPath: m_Layer
      value: 9
      objectReference: {fileID: 0}
    - target: {fileID: 5149404018862669943, guid: 665d8e131c32f294886340f66b6ac61d,
        type: 3}
      propertyPath: m_Layer
      value: 9
      objectReference: {fileID: 0}
    - target: {fileID: 5149404018862669945, guid: 665d8e131c32f294886340f66b6ac61d,
        type: 3}
      propertyPath: m_Layer
      value: 9
      objectReference: {fileID: 0}
    - target: {fileID: 5149404018862669947, guid: 665d8e131c32f294886340f66b6ac61d,
        type: 3}
      propertyPath: m_Layer
      value: 9
      objectReference: {fileID: 0}
    - target: {fileID: 5149404018862669949, guid: 665d8e131c32f294886340f66b6ac61d,
        type: 3}
      propertyPath: m_Layer
      value: 9
      objectReference: {fileID: 0}
    - target: {fileID: 5149404018862669951, guid: 665d8e131c32f294886340f66b6ac61d,
        type: 3}
      propertyPath: m_Layer
      value: 9
      objectReference: {fileID: 0}
    - target: {fileID: 5149404018862669953, guid: 665d8e131c32f294886340f66b6ac61d,
        type: 3}
      propertyPath: m_Layer
      value: 9
      objectReference: {fileID: 0}
    - target: {fileID: 5149404018862669961, guid: 665d8e131c32f294886340f66b6ac61d,
        type: 3}
      propertyPath: m_Layer
      value: 9
      objectReference: {fileID: 0}
    - target: {fileID: 5149404018862669963, guid: 665d8e131c32f294886340f66b6ac61d,
        type: 3}
      propertyPath: m_Layer
      value: 9
      objectReference: {fileID: 0}
    - target: {fileID: 5149404018862669965, guid: 665d8e131c32f294886340f66b6ac61d,
        type: 3}
      propertyPath: m_Layer
      value: 9
      objectReference: {fileID: 0}
    - target: {fileID: 5149404018862669967, guid: 665d8e131c32f294886340f66b6ac61d,
        type: 3}
      propertyPath: m_Layer
      value: 9
      objectReference: {fileID: 0}
    - target: {fileID: 5149404018862669969, guid: 665d8e131c32f294886340f66b6ac61d,
        type: 3}
      propertyPath: m_Layer
      value: 9
      objectReference: {fileID: 0}
    - target: {fileID: 5149404018862669971, guid: 665d8e131c32f294886340f66b6ac61d,
        type: 3}
      propertyPath: m_Layer
      value: 9
      objectReference: {fileID: 0}
    - target: {fileID: 5149404018862669973, guid: 665d8e131c32f294886340f66b6ac61d,
        type: 3}
      propertyPath: m_Layer
      value: 9
      objectReference: {fileID: 0}
    - target: {fileID: 5149404018862669975, guid: 665d8e131c32f294886340f66b6ac61d,
        type: 3}
      propertyPath: m_Layer
      value: 9
      objectReference: {fileID: 0}
    - target: {fileID: 5149404018862669977, guid: 665d8e131c32f294886340f66b6ac61d,
        type: 3}
      propertyPath: m_Layer
      value: 9
      objectReference: {fileID: 0}
    - target: {fileID: 5149404018862669979, guid: 665d8e131c32f294886340f66b6ac61d,
        type: 3}
      propertyPath: m_Layer
      value: 9
      objectReference: {fileID: 0}
    - target: {fileID: 5149404018862669981, guid: 665d8e131c32f294886340f66b6ac61d,
        type: 3}
      propertyPath: m_Layer
      value: 9
      objectReference: {fileID: 0}
    - target: {fileID: 5149404018862669983, guid: 665d8e131c32f294886340f66b6ac61d,
        type: 3}
      propertyPath: m_Layer
      value: 9
      objectReference: {fileID: 0}
    - target: {fileID: 5149404018862670017, guid: 665d8e131c32f294886340f66b6ac61d,
        type: 3}
      propertyPath: m_Layer
      value: 9
      objectReference: {fileID: 0}
    - target: {fileID: 5149404018862670019, guid: 665d8e131c32f294886340f66b6ac61d,
        type: 3}
      propertyPath: m_Layer
      value: 9
      objectReference: {fileID: 0}
    - target: {fileID: 5149404018862670021, guid: 665d8e131c32f294886340f66b6ac61d,
        type: 3}
      propertyPath: m_Layer
      value: 9
      objectReference: {fileID: 0}
    - target: {fileID: 5149404018862670023, guid: 665d8e131c32f294886340f66b6ac61d,
        type: 3}
      propertyPath: m_Layer
      value: 9
      objectReference: {fileID: 0}
    - target: {fileID: 5149404018862670025, guid: 665d8e131c32f294886340f66b6ac61d,
        type: 3}
      propertyPath: m_Layer
      value: 9
      objectReference: {fileID: 0}
    - target: {fileID: 5149404018862670027, guid: 665d8e131c32f294886340f66b6ac61d,
        type: 3}
      propertyPath: m_Layer
      value: 9
      objectReference: {fileID: 0}
    - target: {fileID: 5149404018862670029, guid: 665d8e131c32f294886340f66b6ac61d,
        type: 3}
      propertyPath: m_Layer
      value: 9
      objectReference: {fileID: 0}
    - target: {fileID: 5149404018862670031, guid: 665d8e131c32f294886340f66b6ac61d,
        type: 3}
      propertyPath: m_Layer
      value: 9
      objectReference: {fileID: 0}
    - target: {fileID: 5149404018862670033, guid: 665d8e131c32f294886340f66b6ac61d,
        type: 3}
      propertyPath: m_Layer
      value: 9
      objectReference: {fileID: 0}
    - target: {fileID: 5149404018862670035, guid: 665d8e131c32f294886340f66b6ac61d,
        type: 3}
      propertyPath: m_Layer
      value: 9
      objectReference: {fileID: 0}
    - target: {fileID: 5149404018862670037, guid: 665d8e131c32f294886340f66b6ac61d,
        type: 3}
      propertyPath: m_Layer
      value: 9
      objectReference: {fileID: 0}
    - target: {fileID: 5149404018862670039, guid: 665d8e131c32f294886340f66b6ac61d,
        type: 3}
      propertyPath: m_Layer
      value: 9
      objectReference: {fileID: 0}
    - target: {fileID: 5149404018862670041, guid: 665d8e131c32f294886340f66b6ac61d,
        type: 3}
      propertyPath: m_Layer
      value: 9
      objectReference: {fileID: 0}
    - target: {fileID: 5149404018862670043, guid: 665d8e131c32f294886340f66b6ac61d,
        type: 3}
      propertyPath: m_Layer
      value: 9
      objectReference: {fileID: 0}
    - target: {fileID: 5149404018862670045, guid: 665d8e131c32f294886340f66b6ac61d,
        type: 3}
      propertyPath: m_Layer
      value: 9
      objectReference: {fileID: 0}
    - target: {fileID: 5149404018862670047, guid: 665d8e131c32f294886340f66b6ac61d,
        type: 3}
      propertyPath: m_Layer
      value: 9
      objectReference: {fileID: 0}
    - target: {fileID: 5149404018862670049, guid: 665d8e131c32f294886340f66b6ac61d,
        type: 3}
      propertyPath: m_Layer
      value: 9
      objectReference: {fileID: 0}
    - target: {fileID: 5149404018862670051, guid: 665d8e131c32f294886340f66b6ac61d,
        type: 3}
      propertyPath: m_Layer
      value: 9
      objectReference: {fileID: 0}
    - target: {fileID: 5149404018862670053, guid: 665d8e131c32f294886340f66b6ac61d,
        type: 3}
      propertyPath: m_Layer
      value: 9
      objectReference: {fileID: 0}
    - target: {fileID: 5149404018862670055, guid: 665d8e131c32f294886340f66b6ac61d,
        type: 3}
      propertyPath: m_Layer
      value: 9
      objectReference: {fileID: 0}
    - target: {fileID: 5149404018862670057, guid: 665d8e131c32f294886340f66b6ac61d,
        type: 3}
      propertyPath: m_Layer
      value: 9
      objectReference: {fileID: 0}
    - target: {fileID: 5149404018862670059, guid: 665d8e131c32f294886340f66b6ac61d,
        type: 3}
      propertyPath: m_Layer
      value: 9
      objectReference: {fileID: 0}
    - target: {fileID: 5149404018862670061, guid: 665d8e131c32f294886340f66b6ac61d,
        type: 3}
      propertyPath: m_Layer
      value: 9
      objectReference: {fileID: 0}
    - target: {fileID: 5149404018862670063, guid: 665d8e131c32f294886340f66b6ac61d,
        type: 3}
      propertyPath: m_Layer
      value: 9
      objectReference: {fileID: 0}
    - target: {fileID: 5149404018862670065, guid: 665d8e131c32f294886340f66b6ac61d,
        type: 3}
      propertyPath: m_Layer
      value: 9
      objectReference: {fileID: 0}
    - target: {fileID: 5149404018862670067, guid: 665d8e131c32f294886340f66b6ac61d,
        type: 3}
      propertyPath: m_Layer
      value: 9
      objectReference: {fileID: 0}
    - target: {fileID: 5149404018862670069, guid: 665d8e131c32f294886340f66b6ac61d,
        type: 3}
      propertyPath: m_Layer
      value: 9
      objectReference: {fileID: 0}
    - target: {fileID: 5149404018862670071, guid: 665d8e131c32f294886340f66b6ac61d,
        type: 3}
      propertyPath: m_Layer
      value: 9
      objectReference: {fileID: 0}
    - target: {fileID: 5149404018862670073, guid: 665d8e131c32f294886340f66b6ac61d,
        type: 3}
      propertyPath: m_Layer
      value: 9
      objectReference: {fileID: 0}
    - target: {fileID: 5149404018862670075, guid: 665d8e131c32f294886340f66b6ac61d,
        type: 3}
      propertyPath: m_Layer
      value: 9
      objectReference: {fileID: 0}
    - target: {fileID: 5149404018862670077, guid: 665d8e131c32f294886340f66b6ac61d,
        type: 3}
      propertyPath: m_Layer
      value: 9
      objectReference: {fileID: 0}
    - target: {fileID: 5149404018862670079, guid: 665d8e131c32f294886340f66b6ac61d,
        type: 3}
      propertyPath: m_Layer
      value: 9
      objectReference: {fileID: 0}
    - target: {fileID: 5149404018862670345, guid: 665d8e131c32f294886340f66b6ac61d,
        type: 3}
      propertyPath: m_Layer
      value: 9
      objectReference: {fileID: 0}
    - target: {fileID: 5149404018862670433, guid: 665d8e131c32f294886340f66b6ac61d,
        type: 3}
      propertyPath: m_Layer
      value: 9
      objectReference: {fileID: 0}
    - target: {fileID: 5149404018862670435, guid: 665d8e131c32f294886340f66b6ac61d,
        type: 3}
      propertyPath: m_Layer
      value: 9
      objectReference: {fileID: 0}
    - target: {fileID: 5149404018862670445, guid: 665d8e131c32f294886340f66b6ac61d,
        type: 3}
      propertyPath: m_Layer
      value: 9
      objectReference: {fileID: 0}
    - target: {fileID: 5149404018862670447, guid: 665d8e131c32f294886340f66b6ac61d,
        type: 3}
      propertyPath: m_Layer
      value: 9
      objectReference: {fileID: 0}
    - target: {fileID: 5149404018862670499, guid: 665d8e131c32f294886340f66b6ac61d,
        type: 3}
      propertyPath: m_Layer
      value: 9
      objectReference: {fileID: 0}
    - target: {fileID: 5149404018862670501, guid: 665d8e131c32f294886340f66b6ac61d,
        type: 3}
      propertyPath: m_Layer
      value: 9
      objectReference: {fileID: 0}
    - target: {fileID: 5149404018862670503, guid: 665d8e131c32f294886340f66b6ac61d,
        type: 3}
      propertyPath: m_Layer
      value: 9
      objectReference: {fileID: 0}
    - target: {fileID: 5149404018862670601, guid: 665d8e131c32f294886340f66b6ac61d,
        type: 3}
      propertyPath: m_Layer
      value: 9
      objectReference: {fileID: 0}
    - target: {fileID: 5149404018862670603, guid: 665d8e131c32f294886340f66b6ac61d,
        type: 3}
      propertyPath: m_Layer
      value: 9
      objectReference: {fileID: 0}
    - target: {fileID: 5149404018862670605, guid: 665d8e131c32f294886340f66b6ac61d,
        type: 3}
      propertyPath: m_Layer
      value: 9
      objectReference: {fileID: 0}
    - target: {fileID: 5149404018862670607, guid: 665d8e131c32f294886340f66b6ac61d,
        type: 3}
      propertyPath: m_Layer
      value: 9
      objectReference: {fileID: 0}
    - target: {fileID: 5149404018862670609, guid: 665d8e131c32f294886340f66b6ac61d,
        type: 3}
      propertyPath: m_Layer
      value: 9
      objectReference: {fileID: 0}
    - target: {fileID: 5149404018862670611, guid: 665d8e131c32f294886340f66b6ac61d,
        type: 3}
      propertyPath: m_Layer
      value: 9
      objectReference: {fileID: 0}
    - target: {fileID: 5149404018862670613, guid: 665d8e131c32f294886340f66b6ac61d,
        type: 3}
      propertyPath: m_Layer
      value: 9
      objectReference: {fileID: 0}
    - target: {fileID: 5149404018862670615, guid: 665d8e131c32f294886340f66b6ac61d,
        type: 3}
      propertyPath: m_Layer
      value: 9
      objectReference: {fileID: 0}
    - target: {fileID: 5149404018862670617, guid: 665d8e131c32f294886340f66b6ac61d,
        type: 3}
      propertyPath: m_Layer
      value: 9
      objectReference: {fileID: 0}
    - target: {fileID: 5149404018862670619, guid: 665d8e131c32f294886340f66b6ac61d,
        type: 3}
      propertyPath: m_Layer
      value: 9
      objectReference: {fileID: 0}
    - target: {fileID: 5149404018862670621, guid: 665d8e131c32f294886340f66b6ac61d,
        type: 3}
      propertyPath: m_Layer
      value: 9
      objectReference: {fileID: 0}
    - target: {fileID: 5149404018862670623, guid: 665d8e131c32f294886340f66b6ac61d,
        type: 3}
      propertyPath: m_Layer
      value: 9
      objectReference: {fileID: 0}
    - target: {fileID: 5149404018862670657, guid: 665d8e131c32f294886340f66b6ac61d,
        type: 3}
      propertyPath: m_Layer
      value: 9
      objectReference: {fileID: 0}
    - target: {fileID: 5149404018862670659, guid: 665d8e131c32f294886340f66b6ac61d,
        type: 3}
      propertyPath: m_Layer
      value: 9
      objectReference: {fileID: 0}
    - target: {fileID: 5149404018862670661, guid: 665d8e131c32f294886340f66b6ac61d,
        type: 3}
      propertyPath: m_Layer
      value: 9
      objectReference: {fileID: 0}
    - target: {fileID: 5149404018862670663, guid: 665d8e131c32f294886340f66b6ac61d,
        type: 3}
      propertyPath: m_Layer
      value: 9
      objectReference: {fileID: 0}
    - target: {fileID: 5149404018862670665, guid: 665d8e131c32f294886340f66b6ac61d,
        type: 3}
      propertyPath: m_Layer
      value: 9
      objectReference: {fileID: 0}
    - target: {fileID: 5149404018862670667, guid: 665d8e131c32f294886340f66b6ac61d,
        type: 3}
      propertyPath: m_Layer
      value: 9
      objectReference: {fileID: 0}
    - target: {fileID: 5149404018862670669, guid: 665d8e131c32f294886340f66b6ac61d,
        type: 3}
      propertyPath: m_Layer
      value: 9
      objectReference: {fileID: 0}
    - target: {fileID: 5149404018862670671, guid: 665d8e131c32f294886340f66b6ac61d,
        type: 3}
      propertyPath: m_Layer
      value: 9
      objectReference: {fileID: 0}
    - target: {fileID: 5149404018862670673, guid: 665d8e131c32f294886340f66b6ac61d,
        type: 3}
      propertyPath: m_Layer
      value: 9
      objectReference: {fileID: 0}
    - target: {fileID: 5149404018862670675, guid: 665d8e131c32f294886340f66b6ac61d,
        type: 3}
      propertyPath: m_Layer
      value: 9
      objectReference: {fileID: 0}
    - target: {fileID: 5149404018862670677, guid: 665d8e131c32f294886340f66b6ac61d,
        type: 3}
      propertyPath: m_Layer
      value: 9
      objectReference: {fileID: 0}
    - target: {fileID: 5149404018862670679, guid: 665d8e131c32f294886340f66b6ac61d,
        type: 3}
      propertyPath: m_Layer
      value: 9
      objectReference: {fileID: 0}
    - target: {fileID: 5149404018862670681, guid: 665d8e131c32f294886340f66b6ac61d,
        type: 3}
      propertyPath: m_Layer
      value: 9
      objectReference: {fileID: 0}
    - target: {fileID: 5149404018862670683, guid: 665d8e131c32f294886340f66b6ac61d,
        type: 3}
      propertyPath: m_Layer
      value: 9
      objectReference: {fileID: 0}
    - target: {fileID: 5149404018862670685, guid: 665d8e131c32f294886340f66b6ac61d,
        type: 3}
      propertyPath: m_Layer
      value: 9
      objectReference: {fileID: 0}
    - target: {fileID: 5149404018862670687, guid: 665d8e131c32f294886340f66b6ac61d,
        type: 3}
      propertyPath: m_Layer
      value: 9
      objectReference: {fileID: 0}
    - target: {fileID: 5149404018862670689, guid: 665d8e131c32f294886340f66b6ac61d,
        type: 3}
      propertyPath: m_Layer
      value: 9
      objectReference: {fileID: 0}
    - target: {fileID: 5149404018862670691, guid: 665d8e131c32f294886340f66b6ac61d,
        type: 3}
      propertyPath: m_Layer
      value: 9
      objectReference: {fileID: 0}
    - target: {fileID: 5149404018862670693, guid: 665d8e131c32f294886340f66b6ac61d,
        type: 3}
      propertyPath: m_Layer
      value: 9
      objectReference: {fileID: 0}
    - target: {fileID: 5149404018862670695, guid: 665d8e131c32f294886340f66b6ac61d,
        type: 3}
      propertyPath: m_Layer
      value: 9
      objectReference: {fileID: 0}
    - target: {fileID: 5149404018862670697, guid: 665d8e131c32f294886340f66b6ac61d,
        type: 3}
      propertyPath: m_Layer
      value: 9
      objectReference: {fileID: 0}
    - target: {fileID: 5149404018862670699, guid: 665d8e131c32f294886340f66b6ac61d,
        type: 3}
      propertyPath: m_Layer
      value: 9
      objectReference: {fileID: 0}
    - target: {fileID: 5149404018862670701, guid: 665d8e131c32f294886340f66b6ac61d,
        type: 3}
      propertyPath: m_Layer
      value: 9
      objectReference: {fileID: 0}
    - target: {fileID: 5149404018862670703, guid: 665d8e131c32f294886340f66b6ac61d,
        type: 3}
      propertyPath: m_Layer
      value: 9
      objectReference: {fileID: 0}
    - target: {fileID: 5149404018862670705, guid: 665d8e131c32f294886340f66b6ac61d,
        type: 3}
      propertyPath: m_Layer
      value: 9
      objectReference: {fileID: 0}
    - target: {fileID: 5149404018862670707, guid: 665d8e131c32f294886340f66b6ac61d,
        type: 3}
      propertyPath: m_Layer
      value: 9
      objectReference: {fileID: 0}
    - target: {fileID: 5149404018862670709, guid: 665d8e131c32f294886340f66b6ac61d,
        type: 3}
      propertyPath: m_Layer
      value: 9
      objectReference: {fileID: 0}
    - target: {fileID: 5149404018862670713, guid: 665d8e131c32f294886340f66b6ac61d,
        type: 3}
      propertyPath: m_Layer
      value: 9
      objectReference: {fileID: 0}
    - target: {fileID: 5149404018862670715, guid: 665d8e131c32f294886340f66b6ac61d,
        type: 3}
      propertyPath: m_Layer
      value: 9
      objectReference: {fileID: 0}
    - target: {fileID: 5149404018862670717, guid: 665d8e131c32f294886340f66b6ac61d,
        type: 3}
      propertyPath: m_Layer
      value: 9
      objectReference: {fileID: 0}
    - target: {fileID: 5149404018862670719, guid: 665d8e131c32f294886340f66b6ac61d,
        type: 3}
      propertyPath: m_Layer
      value: 9
      objectReference: {fileID: 0}
    - target: {fileID: 5149404018862670721, guid: 665d8e131c32f294886340f66b6ac61d,
        type: 3}
      propertyPath: m_Layer
      value: 9
      objectReference: {fileID: 0}
    - target: {fileID: 5149404018862670723, guid: 665d8e131c32f294886340f66b6ac61d,
        type: 3}
      propertyPath: m_Layer
      value: 9
      objectReference: {fileID: 0}
    - target: {fileID: 5149404018862670725, guid: 665d8e131c32f294886340f66b6ac61d,
        type: 3}
      propertyPath: m_Layer
      value: 9
      objectReference: {fileID: 0}
    - target: {fileID: 5149404018862670727, guid: 665d8e131c32f294886340f66b6ac61d,
        type: 3}
      propertyPath: m_Layer
      value: 9
      objectReference: {fileID: 0}
    - target: {fileID: 5149404018862670729, guid: 665d8e131c32f294886340f66b6ac61d,
        type: 3}
      propertyPath: m_Layer
      value: 9
      objectReference: {fileID: 0}
    - target: {fileID: 5149404018862670731, guid: 665d8e131c32f294886340f66b6ac61d,
        type: 3}
      propertyPath: m_Layer
      value: 9
      objectReference: {fileID: 0}
    - target: {fileID: 5149404018862670733, guid: 665d8e131c32f294886340f66b6ac61d,
        type: 3}
      propertyPath: m_Layer
      value: 9
      objectReference: {fileID: 0}
    - target: {fileID: 5149404018862670735, guid: 665d8e131c32f294886340f66b6ac61d,
        type: 3}
      propertyPath: m_Layer
      value: 9
      objectReference: {fileID: 0}
    - target: {fileID: 5149404018862670743, guid: 665d8e131c32f294886340f66b6ac61d,
        type: 3}
      propertyPath: m_Layer
      value: 9
      objectReference: {fileID: 0}
    - target: {fileID: 5149404018862670753, guid: 665d8e131c32f294886340f66b6ac61d,
        type: 3}
      propertyPath: m_Layer
      value: 9
      objectReference: {fileID: 0}
    - target: {fileID: 5149404018862670755, guid: 665d8e131c32f294886340f66b6ac61d,
        type: 3}
      propertyPath: m_Layer
      value: 9
      objectReference: {fileID: 0}
    - target: {fileID: 5149404018862670757, guid: 665d8e131c32f294886340f66b6ac61d,
        type: 3}
      propertyPath: m_Layer
      value: 9
      objectReference: {fileID: 0}
    - target: {fileID: 5149404018862670759, guid: 665d8e131c32f294886340f66b6ac61d,
        type: 3}
      propertyPath: m_Layer
      value: 9
      objectReference: {fileID: 0}
    - target: {fileID: 5149404018862670761, guid: 665d8e131c32f294886340f66b6ac61d,
        type: 3}
      propertyPath: m_Layer
      value: 9
      objectReference: {fileID: 0}
    - target: {fileID: 5149404018862670763, guid: 665d8e131c32f294886340f66b6ac61d,
        type: 3}
      propertyPath: m_Layer
      value: 9
      objectReference: {fileID: 0}
    - target: {fileID: 5149404018862670765, guid: 665d8e131c32f294886340f66b6ac61d,
        type: 3}
      propertyPath: m_Layer
      value: 9
      objectReference: {fileID: 0}
    - target: {fileID: 5149404018862670767, guid: 665d8e131c32f294886340f66b6ac61d,
        type: 3}
      propertyPath: m_Layer
      value: 9
      objectReference: {fileID: 0}
    - target: {fileID: 5149404018862670769, guid: 665d8e131c32f294886340f66b6ac61d,
        type: 3}
      propertyPath: m_Layer
      value: 9
      objectReference: {fileID: 0}
    - target: {fileID: 5149404018862670771, guid: 665d8e131c32f294886340f66b6ac61d,
        type: 3}
      propertyPath: m_Layer
      value: 9
      objectReference: {fileID: 0}
    - target: {fileID: 5149404018862670773, guid: 665d8e131c32f294886340f66b6ac61d,
        type: 3}
      propertyPath: m_Layer
      value: 9
      objectReference: {fileID: 0}
    - target: {fileID: 5149404018862670775, guid: 665d8e131c32f294886340f66b6ac61d,
        type: 3}
      propertyPath: m_Layer
      value: 9
      objectReference: {fileID: 0}
    - target: {fileID: 5149404018862670777, guid: 665d8e131c32f294886340f66b6ac61d,
        type: 3}
      propertyPath: m_Layer
      value: 9
      objectReference: {fileID: 0}
    - target: {fileID: 5149404018862670779, guid: 665d8e131c32f294886340f66b6ac61d,
        type: 3}
      propertyPath: m_Layer
      value: 9
      objectReference: {fileID: 0}
    - target: {fileID: 5149404018862670781, guid: 665d8e131c32f294886340f66b6ac61d,
        type: 3}
      propertyPath: m_Layer
      value: 9
      objectReference: {fileID: 0}
    - target: {fileID: 5149404018862670783, guid: 665d8e131c32f294886340f66b6ac61d,
        type: 3}
      propertyPath: m_Layer
      value: 9
      objectReference: {fileID: 0}
    - target: {fileID: 5149404018862670825, guid: 665d8e131c32f294886340f66b6ac61d,
        type: 3}
      propertyPath: m_Layer
      value: 9
      objectReference: {fileID: 0}
    - target: {fileID: 5149404018862670827, guid: 665d8e131c32f294886340f66b6ac61d,
        type: 3}
      propertyPath: m_Layer
      value: 9
      objectReference: {fileID: 0}
    - target: {fileID: 5149404018862670829, guid: 665d8e131c32f294886340f66b6ac61d,
        type: 3}
      propertyPath: m_Layer
      value: 9
      objectReference: {fileID: 0}
    - target: {fileID: 5149404018862670833, guid: 665d8e131c32f294886340f66b6ac61d,
        type: 3}
      propertyPath: m_Layer
      value: 9
      objectReference: {fileID: 0}
    - target: {fileID: 5149404018862670835, guid: 665d8e131c32f294886340f66b6ac61d,
        type: 3}
      propertyPath: m_Layer
      value: 9
      objectReference: {fileID: 0}
    - target: {fileID: 5149404018862670837, guid: 665d8e131c32f294886340f66b6ac61d,
        type: 3}
      propertyPath: m_Layer
      value: 9
      objectReference: {fileID: 0}
    - target: {fileID: 5149404018862670839, guid: 665d8e131c32f294886340f66b6ac61d,
        type: 3}
      propertyPath: m_Layer
      value: 9
      objectReference: {fileID: 0}
    - target: {fileID: 5149404018862673041, guid: 665d8e131c32f294886340f66b6ac61d,
        type: 3}
      propertyPath: m_Layer
      value: 9
      objectReference: {fileID: 0}
    - target: {fileID: 5149404018862673043, guid: 665d8e131c32f294886340f66b6ac61d,
        type: 3}
      propertyPath: m_Layer
      value: 9
      objectReference: {fileID: 0}
    - target: {fileID: 5149404018862673049, guid: 665d8e131c32f294886340f66b6ac61d,
        type: 3}
      propertyPath: m_Layer
      value: 9
      objectReference: {fileID: 0}
    - target: {fileID: 5149404018862673051, guid: 665d8e131c32f294886340f66b6ac61d,
        type: 3}
      propertyPath: m_Layer
      value: 9
      objectReference: {fileID: 0}
    - target: {fileID: 5149404018862673053, guid: 665d8e131c32f294886340f66b6ac61d,
        type: 3}
      propertyPath: m_Layer
      value: 9
      objectReference: {fileID: 0}
    - target: {fileID: 5149404018862673055, guid: 665d8e131c32f294886340f66b6ac61d,
        type: 3}
      propertyPath: m_Layer
      value: 9
      objectReference: {fileID: 0}
    - target: {fileID: 5149404018862673121, guid: 665d8e131c32f294886340f66b6ac61d,
        type: 3}
      propertyPath: m_Layer
      value: 9
      objectReference: {fileID: 0}
    - target: {fileID: 5149404018862673123, guid: 665d8e131c32f294886340f66b6ac61d,
        type: 3}
      propertyPath: m_Layer
      value: 9
      objectReference: {fileID: 0}
    - target: {fileID: 5149404018862673125, guid: 665d8e131c32f294886340f66b6ac61d,
        type: 3}
      propertyPath: m_Layer
      value: 9
      objectReference: {fileID: 0}
    - target: {fileID: 5149404018862673127, guid: 665d8e131c32f294886340f66b6ac61d,
        type: 3}
      propertyPath: m_Layer
      value: 9
      objectReference: {fileID: 0}
    - target: {fileID: 5149404018862673129, guid: 665d8e131c32f294886340f66b6ac61d,
        type: 3}
      propertyPath: m_Layer
      value: 9
      objectReference: {fileID: 0}
    - target: {fileID: 5149404018862673131, guid: 665d8e131c32f294886340f66b6ac61d,
        type: 3}
      propertyPath: m_Layer
      value: 9
      objectReference: {fileID: 0}
    - target: {fileID: 5149404018862673133, guid: 665d8e131c32f294886340f66b6ac61d,
        type: 3}
      propertyPath: m_Layer
      value: 9
      objectReference: {fileID: 0}
    - target: {fileID: 5149404018862673135, guid: 665d8e131c32f294886340f66b6ac61d,
        type: 3}
      propertyPath: m_Layer
      value: 9
      objectReference: {fileID: 0}
    - target: {fileID: 5149404018862673137, guid: 665d8e131c32f294886340f66b6ac61d,
        type: 3}
      propertyPath: m_Layer
      value: 9
      objectReference: {fileID: 0}
    - target: {fileID: 5149404018862673139, guid: 665d8e131c32f294886340f66b6ac61d,
        type: 3}
      propertyPath: m_Layer
      value: 9
      objectReference: {fileID: 0}
    - target: {fileID: 5149404018862673141, guid: 665d8e131c32f294886340f66b6ac61d,
        type: 3}
      propertyPath: m_Layer
      value: 9
      objectReference: {fileID: 0}
    - target: {fileID: 5149404018862673143, guid: 665d8e131c32f294886340f66b6ac61d,
        type: 3}
      propertyPath: m_Layer
      value: 9
      objectReference: {fileID: 0}
    - target: {fileID: 5149404018862673145, guid: 665d8e131c32f294886340f66b6ac61d,
        type: 3}
      propertyPath: m_Layer
      value: 9
      objectReference: {fileID: 0}
    - target: {fileID: 5149404018862673147, guid: 665d8e131c32f294886340f66b6ac61d,
        type: 3}
      propertyPath: m_Layer
      value: 9
      objectReference: {fileID: 0}
    - target: {fileID: 5149404018862673149, guid: 665d8e131c32f294886340f66b6ac61d,
        type: 3}
      propertyPath: m_Layer
      value: 9
      objectReference: {fileID: 0}
    - target: {fileID: 5149404018862673151, guid: 665d8e131c32f294886340f66b6ac61d,
        type: 3}
      propertyPath: m_Layer
      value: 9
      objectReference: {fileID: 0}
    - target: {fileID: 5149404018862673159, guid: 665d8e131c32f294886340f66b6ac61d,
        type: 3}
      propertyPath: m_Layer
      value: 9
      objectReference: {fileID: 0}
    - target: {fileID: 5149404018862673167, guid: 665d8e131c32f294886340f66b6ac61d,
        type: 3}
      propertyPath: m_Layer
      value: 9
      objectReference: {fileID: 0}
    - target: {fileID: 5149404018862673169, guid: 665d8e131c32f294886340f66b6ac61d,
        type: 3}
      propertyPath: m_Layer
      value: 9
      objectReference: {fileID: 0}
    - target: {fileID: 5149404018862673179, guid: 665d8e131c32f294886340f66b6ac61d,
        type: 3}
      propertyPath: m_Layer
      value: 9
      objectReference: {fileID: 0}
    - target: {fileID: 5149404018862673181, guid: 665d8e131c32f294886340f66b6ac61d,
        type: 3}
      propertyPath: m_Layer
      value: 9
      objectReference: {fileID: 0}
    - target: {fileID: 5149404018862673183, guid: 665d8e131c32f294886340f66b6ac61d,
        type: 3}
      propertyPath: m_Layer
      value: 9
      objectReference: {fileID: 0}
    - target: {fileID: 5149404018862673193, guid: 665d8e131c32f294886340f66b6ac61d,
        type: 3}
      propertyPath: m_Layer
      value: 9
      objectReference: {fileID: 0}
    - target: {fileID: 5149404018862673207, guid: 665d8e131c32f294886340f66b6ac61d,
        type: 3}
      propertyPath: m_Layer
      value: 9
      objectReference: {fileID: 0}
    - target: {fileID: 5149404018864672911, guid: 665d8e131c32f294886340f66b6ac61d,
        type: 3}
      propertyPath: m_Materials.Array.data[0]
      value: 
      objectReference: {fileID: 2100000, guid: 98a7fdcb4ebb44344b4afe0424d44b82, type: 2}
    - target: {fileID: 5197012134166925956, guid: 665d8e131c32f294886340f66b6ac61d,
        type: 3}
      propertyPath: m_Materials.Array.data[0]
      value: 
      objectReference: {fileID: 2100000, guid: 98a7fdcb4ebb44344b4afe0424d44b82, type: 2}
    - target: {fileID: 5384990124479053366, guid: 665d8e131c32f294886340f66b6ac61d,
        type: 3}
      propertyPath: m_Layer
      value: 9
      objectReference: {fileID: 0}
    - target: {fileID: 5426762139948212131, guid: 665d8e131c32f294886340f66b6ac61d,
        type: 3}
      propertyPath: team
      value: 1
      objectReference: {fileID: 0}
    - target: {fileID: 5426762139948212131, guid: 665d8e131c32f294886340f66b6ac61d,
        type: 3}
      propertyPath: type
      value: 1
      objectReference: {fileID: 0}
    - target: {fileID: 5426762139948212131, guid: 665d8e131c32f294886340f66b6ac61d,
        type: 3}
      propertyPath: model
      value: 2
      objectReference: {fileID: 0}
    - target: {fileID: 5671661865140992566, guid: 665d8e131c32f294886340f66b6ac61d,
        type: 3}
      propertyPath: m_Materials.Array.data[0]
      value: 
      objectReference: {fileID: 2100000, guid: 98a7fdcb4ebb44344b4afe0424d44b82, type: 2}
    - target: {fileID: 5763812313776539009, guid: 665d8e131c32f294886340f66b6ac61d,
        type: 3}
      propertyPath: data.whatIsTarget.m_Bits
      value: 256
      objectReference: {fileID: 0}
    - target: {fileID: 5847358804469961996, guid: 665d8e131c32f294886340f66b6ac61d,
        type: 3}
      propertyPath: m_Layer
      value: 9
      objectReference: {fileID: 0}
    - target: {fileID: 6938861581748685626, guid: 665d8e131c32f294886340f66b6ac61d,
        type: 3}
      propertyPath: m_Layer
      value: 9
      objectReference: {fileID: 0}
    - target: {fileID: 7138510865084055846, guid: 665d8e131c32f294886340f66b6ac61d,
        type: 3}
      propertyPath: m_Layer
      value: 9
      objectReference: {fileID: 0}
    - target: {fileID: 7347189389007458101, guid: 665d8e131c32f294886340f66b6ac61d,
        type: 3}
      propertyPath: m_Layer
      value: 9
      objectReference: {fileID: 0}
    - target: {fileID: 7371733241768507405, guid: 665d8e131c32f294886340f66b6ac61d,
        type: 3}
      propertyPath: m_Layer
      value: 9
      objectReference: {fileID: 0}
    - target: {fileID: 7472226651871472694, guid: 665d8e131c32f294886340f66b6ac61d,
        type: 3}
      propertyPath: m_Enabled
      value: 0
      objectReference: {fileID: 0}
    - target: {fileID: 8663863918544468405, guid: 665d8e131c32f294886340f66b6ac61d,
        type: 3}
      propertyPath: m_Layer
      value: 9
      objectReference: {fileID: 0}
    - target: {fileID: 8710386487136282592, guid: 665d8e131c32f294886340f66b6ac61d,
        type: 3}
      propertyPath: enemyLayer.m_Bits
      value: 4096
      objectReference: {fileID: 0}
    - target: {fileID: 8747728371644763707, guid: 665d8e131c32f294886340f66b6ac61d,
        type: 3}
      propertyPath: m_Layer
      value: 9
      objectReference: {fileID: 0}
    - target: {fileID: 8902190171665005227, guid: 665d8e131c32f294886340f66b6ac61d,
        type: 3}
      propertyPath: m_Layer
      value: 9
      objectReference: {fileID: 0}
    - target: {fileID: 9059541328134943414, guid: 665d8e131c32f294886340f66b6ac61d,
        type: 3}
      propertyPath: m_Layer
      value: 9
      objectReference: {fileID: 0}
    - target: {fileID: 9095471370511798243, guid: 665d8e131c32f294886340f66b6ac61d,
        type: 3}
      propertyPath: m_Layer
      value: 9
      objectReference: {fileID: 0}
    - target: {fileID: 9159637726385971443, guid: 665d8e131c32f294886340f66b6ac61d,
        type: 3}
      propertyPath: m_Layer
      value: 9
      objectReference: {fileID: 0}
    - target: {fileID: 9159637726385971443, guid: 665d8e131c32f294886340f66b6ac61d,
        type: 3}
      propertyPath: m_IsActive
      value: 0
      objectReference: {fileID: 0}
    m_RemovedComponents: []
  m_SourcePrefab: {fileID: 100100000, guid: 665d8e131c32f294886340f66b6ac61d, type: 3}
