%YAML 1.1
%TAG !u! tag:unity3d.com,2011:
--- !u!29 &1
OcclusionCullingSettings:
  m_ObjectHideFlags: 0
  serializedVersion: 2
  m_OcclusionBakeSettings:
    smallestOccluder: 5
    smallestHole: 0.25
    backfaceThreshold: 100
  m_SceneGUID: 00000000000000000000000000000000
  m_OcclusionCullingData: {fileID: 0}
--- !u!104 &2
RenderSettings:
  m_ObjectHideFlags: 0
  serializedVersion: 9
  m_Fog: 0
  m_FogColor: {r: 0.5, g: 0.5, b: 0.5, a: 1}
  m_FogMode: 3
  m_FogDensity: 0.01
  m_LinearFogStart: 0
  m_LinearFogEnd: 300
  m_AmbientSkyColor: {r: 0.212, g: 0.227, b: 0.259, a: 1}
  m_AmbientEquatorColor: {r: 0.114, g: 0.125, b: 0.133, a: 1}
  m_AmbientGroundColor: {r: 0.047, g: 0.043, b: 0.035, a: 1}
  m_AmbientIntensity: 1
  m_AmbientMode: 0
  m_SubtractiveShadowColor: {r: 0.42, g: 0.478, b: 0.627, a: 1}
  m_SkyboxMaterial: {fileID: 2100000, guid: 2bd8959f5fbd3644aa33af1a155fc147, type: 2}
  m_HaloStrength: 0.5
  m_FlareStrength: 1
  m_FlareFadeSpeed: 3
  m_HaloTexture: {fileID: 0}
  m_SpotCookie: {fileID: 10001, guid: 0000000000000000e000000000000000, type: 0}
  m_DefaultReflectionMode: 0
  m_DefaultReflectionResolution: 128
  m_ReflectionBounces: 1
  m_ReflectionIntensity: 1
  m_CustomReflection: {fileID: 0}
  m_Sun: {fileID: 985242535}
  m_IndirectSpecularColor: {r: 0.36297253, g: 0.5661971, b: 0.84371066, a: 1}
  m_UseRadianceAmbientProbe: 0
--- !u!157 &3
LightmapSettings:
  m_ObjectHideFlags: 0
  serializedVersion: 11
  m_GIWorkflowMode: 0
  m_GISettings:
    serializedVersion: 2
    m_BounceScale: 1
    m_IndirectOutputScale: 1
    m_AlbedoBoost: 1
    m_EnvironmentLightingMode: 0
    m_EnableBakedLightmaps: 1
    m_EnableRealtimeLightmaps: 0
  m_LightmapEditorSettings:
    serializedVersion: 12
    m_Resolution: 2
    m_BakeResolution: 40
    m_AtlasSize: 1024
    m_AO: 0
    m_AOMaxDistance: 1
    m_CompAOExponent: 1
    m_CompAOExponentDirect: 0
    m_ExtractAmbientOcclusion: 0
    m_Padding: 2
    m_LightmapParameters: {fileID: 0}
    m_LightmapsBakeMode: 1
    m_TextureCompression: 1
    m_FinalGather: 0
    m_FinalGatherFiltering: 1
    m_FinalGatherRayCount: 256
    m_ReflectionCompression: 2
    m_MixedBakeMode: 2
    m_BakeBackend: 1
    m_PVRSampling: 1
    m_PVRDirectSampleCount: 32
    m_PVRSampleCount: 512
    m_PVRBounces: 2
    m_PVREnvironmentSampleCount: 256
    m_PVREnvironmentReferencePointCount: 2048
    m_PVRFilteringMode: 1
    m_PVRDenoiserTypeDirect: 1
    m_PVRDenoiserTypeIndirect: 1
    m_PVRDenoiserTypeAO: 1
    m_PVRFilterTypeDirect: 0
    m_PVRFilterTypeIndirect: 0
    m_PVRFilterTypeAO: 0
    m_PVREnvironmentMIS: 1
    m_PVRCulling: 1
    m_PVRFilteringGaussRadiusDirect: 1
    m_PVRFilteringGaussRadiusIndirect: 5
    m_PVRFilteringGaussRadiusAO: 2
    m_PVRFilteringAtrousPositionSigmaDirect: 0.5
    m_PVRFilteringAtrousPositionSigmaIndirect: 2
    m_PVRFilteringAtrousPositionSigmaAO: 1
    m_ExportTrainingData: 0
    m_TrainingDataDestination: TrainingData
    m_LightProbeSampleCountMultiplier: 4
  m_LightingDataAsset: {fileID: 112000000, guid: 87dd6bbc35768d94cb812b011654a291,
    type: 2}
  m_UseShadowmask: 1
--- !u!196 &4
NavMeshSettings:
  serializedVersion: 2
  m_ObjectHideFlags: 0
  m_BuildSettings:
    serializedVersion: 2
    agentTypeID: 0
    agentRadius: 0.5
    agentHeight: 2
    agentSlope: 45
    agentClimb: 0.4
    ledgeDropHeight: 0
    maxJumpAcrossDistance: 0
    minRegionArea: 2
    manualCellSize: 0
    cellSize: 0.16666667
    manualTileSize: 0
    tileSize: 256
    accuratePlacement: 0
    debug:
      m_Flags: 0
  m_NavMeshData: {fileID: 23800000, guid: 9b4fc9f016d9cbb41abf444e40de6767, type: 2}
--- !u!1001 &131648947
PrefabInstance:
  m_ObjectHideFlags: 0
  serializedVersion: 2
  m_Modification:
    m_TransformParent: {fileID: 0}
    m_Modifications:
    - target: {fileID: 3663712224685462852, guid: 43fcaa23795538448b05dca511f3c15a,
        type: 3}
      propertyPath: m_Name
      value: Camera_InGame
      objectReference: {fileID: 0}
    - target: {fileID: 3663712224685462853, guid: 43fcaa23795538448b05dca511f3c15a,
        type: 3}
      propertyPath: minZoom
      value: 20
      objectReference: {fileID: 0}
    - target: {fileID: 3663712224685462856, guid: 43fcaa23795538448b05dca511f3c15a,
        type: 3}
      propertyPath: terrain
      value: 
      objectReference: {fileID: 786525329}
    - target: {fileID: 3663712224685462857, guid: 43fcaa23795538448b05dca511f3c15a,
        type: 3}
      propertyPath: m_RootOrder
      value: 0
      objectReference: {fileID: 0}
    - target: {fileID: 3663712224685462857, guid: 43fcaa23795538448b05dca511f3c15a,
        type: 3}
      propertyPath: m_LocalPosition.x
      value: 20
      objectReference: {fileID: 0}
    - target: {fileID: 3663712224685462857, guid: 43fcaa23795538448b05dca511f3c15a,
        type: 3}
      propertyPath: m_LocalPosition.y
      value: 20
      objectReference: {fileID: 0}
    - target: {fileID: 3663712224685462857, guid: 43fcaa23795538448b05dca511f3c15a,
        type: 3}
      propertyPath: m_LocalPosition.z
      value: -0
      objectReference: {fileID: 0}
    - target: {fileID: 3663712224685462857, guid: 43fcaa23795538448b05dca511f3c15a,
        type: 3}
      propertyPath: m_LocalRotation.w
      value: 0.7071068
      objectReference: {fileID: 0}
    - target: {fileID: 3663712224685462857, guid: 43fcaa23795538448b05dca511f3c15a,
        type: 3}
      propertyPath: m_LocalRotation.x
      value: 0
      objectReference: {fileID: 0}
    - target: {fileID: 3663712224685462857, guid: 43fcaa23795538448b05dca511f3c15a,
        type: 3}
      propertyPath: m_LocalRotation.y
      value: -0.7071068
      objectReference: {fileID: 0}
    - target: {fileID: 3663712224685462857, guid: 43fcaa23795538448b05dca511f3c15a,
        type: 3}
      propertyPath: m_LocalRotation.z
      value: 0
      objectReference: {fileID: 0}
    - target: {fileID: 3663712224685462857, guid: 43fcaa23795538448b05dca511f3c15a,
        type: 3}
      propertyPath: m_LocalEulerAnglesHint.x
      value: 0
      objectReference: {fileID: 0}
    - target: {fileID: 3663712224685462857, guid: 43fcaa23795538448b05dca511f3c15a,
        type: 3}
      propertyPath: m_LocalEulerAnglesHint.y
      value: -90.00001
      objectReference: {fileID: 0}
    - target: {fileID: 3663712224685462857, guid: 43fcaa23795538448b05dca511f3c15a,
        type: 3}
      propertyPath: m_LocalEulerAnglesHint.z
      value: 0
      objectReference: {fileID: 0}
    - target: {fileID: 3663712224685462858, guid: 43fcaa23795538448b05dca511f3c15a,
        type: 3}
      propertyPath: target
      value: 
      objectReference: {fileID: 786525328}
    m_RemovedComponents: []
  m_SourcePrefab: {fileID: 100100000, guid: 43fcaa23795538448b05dca511f3c15a, type: 3}
--- !u!1001 &786525327
PrefabInstance:
  m_ObjectHideFlags: 0
  serializedVersion: 2
  m_Modification:
    m_TransformParent: {fileID: 0}
    m_Modifications:
    - target: {fileID: 74538011787717602, guid: 2f7690838b5122f439aba4d4f69109ad,
        type: 3}
      propertyPath: m_Enabled
      value: 1
      objectReference: {fileID: 0}
    - target: {fileID: 1625046419069676536, guid: 2f7690838b5122f439aba4d4f69109ad,
        type: 3}
      propertyPath: m_Enabled
      value: 1
      objectReference: {fileID: 0}
    - target: {fileID: 2774705799218824257, guid: 2f7690838b5122f439aba4d4f69109ad,
        type: 3}
      propertyPath: m_Enabled
      value: 1
      objectReference: {fileID: 0}
    - target: {fileID: 3216911423409279378, guid: 2f7690838b5122f439aba4d4f69109ad,
        type: 3}
      propertyPath: m_RootOrder
      value: 3
      objectReference: {fileID: 0}
    - target: {fileID: 3216911423409279378, guid: 2f7690838b5122f439aba4d4f69109ad,
        type: 3}
      propertyPath: m_LocalPosition.x
      value: 0
      objectReference: {fileID: 0}
    - target: {fileID: 3216911423409279378, guid: 2f7690838b5122f439aba4d4f69109ad,
        type: 3}
      propertyPath: m_LocalPosition.y
      value: 0
      objectReference: {fileID: 0}
    - target: {fileID: 3216911423409279378, guid: 2f7690838b5122f439aba4d4f69109ad,
        type: 3}
      propertyPath: m_LocalPosition.z
      value: 0
      objectReference: {fileID: 0}
    - target: {fileID: 3216911423409279378, guid: 2f7690838b5122f439aba4d4f69109ad,
        type: 3}
      propertyPath: m_LocalRotation.w
      value: 1
      objectReference: {fileID: 0}
    - target: {fileID: 3216911423409279378, guid: 2f7690838b5122f439aba4d4f69109ad,
        type: 3}
      propertyPath: m_LocalRotation.x
      value: 0
      objectReference: {fileID: 0}
    - target: {fileID: 3216911423409279378, guid: 2f7690838b5122f439aba4d4f69109ad,
        type: 3}
      propertyPath: m_LocalRotation.y
      value: 0
      objectReference: {fileID: 0}
    - target: {fileID: 3216911423409279378, guid: 2f7690838b5122f439aba4d4f69109ad,
        type: 3}
      propertyPath: m_LocalRotation.z
      value: 0
      objectReference: {fileID: 0}
    - target: {fileID: 3216911423409279378, guid: 2f7690838b5122f439aba4d4f69109ad,
        type: 3}
      propertyPath: m_LocalEulerAnglesHint.x
      value: 0
      objectReference: {fileID: 0}
    - target: {fileID: 3216911423409279378, guid: 2f7690838b5122f439aba4d4f69109ad,
        type: 3}
      propertyPath: m_LocalEulerAnglesHint.y
      value: 0
      objectReference: {fileID: 0}
    - target: {fileID: 3216911423409279378, guid: 2f7690838b5122f439aba4d4f69109ad,
        type: 3}
      propertyPath: m_LocalEulerAnglesHint.z
      value: 0
      objectReference: {fileID: 0}
    - target: {fileID: 3216911423409279379, guid: 2f7690838b5122f439aba4d4f69109ad,
        type: 3}
      propertyPath: m_Name
      value: 1-1
      objectReference: {fileID: 0}
    - target: {fileID: 3943823534289840533, guid: 2f7690838b5122f439aba4d4f69109ad,
        type: 3}
      propertyPath: m_Enabled
      value: 1
      objectReference: {fileID: 0}
    - target: {fileID: 4277417168305403504, guid: 2f7690838b5122f439aba4d4f69109ad,
        type: 3}
      propertyPath: m_Enabled
      value: 1
      objectReference: {fileID: 0}
    - target: {fileID: 4912154330271311707, guid: 2f7690838b5122f439aba4d4f69109ad,
        type: 3}
      propertyPath: m_IsActive
      value: 0
      objectReference: {fileID: 0}
    - target: {fileID: 5843172184975893359, guid: 2f7690838b5122f439aba4d4f69109ad,
        type: 3}
      propertyPath: m_IsActive
      value: 0
      objectReference: {fileID: 0}
    - target: {fileID: 6468598252355979767, guid: 2f7690838b5122f439aba4d4f69109ad,
        type: 3}
      propertyPath: m_Enabled
      value: 1
      objectReference: {fileID: 0}
    - target: {fileID: 6827023655454396845, guid: 2f7690838b5122f439aba4d4f69109ad,
        type: 3}
      propertyPath: m_IsActive
      value: 0
      objectReference: {fileID: 0}
    - target: {fileID: 7479040756552744630, guid: 2f7690838b5122f439aba4d4f69109ad,
        type: 3}
      propertyPath: m_IsActive
      value: 0
      objectReference: {fileID: 0}
    - target: {fileID: 8482679581953734733, guid: 2f7690838b5122f439aba4d4f69109ad,
        type: 3}
      propertyPath: m_Enabled
      value: 1
      objectReference: {fileID: 0}
    - target: {fileID: 8583042790604414893, guid: 2f7690838b5122f439aba4d4f69109ad,
        type: 3}
      propertyPath: m_Enabled
      value: 1
      objectReference: {fileID: 0}
    m_RemovedComponents: []
  m_SourcePrefab: {fileID: 100100000, guid: 2f7690838b5122f439aba4d4f69109ad, type: 3}
--- !u!4 &786525328 stripped
Transform:
  m_CorrespondingSourceObject: {fileID: 475622385114009280, guid: 2f7690838b5122f439aba4d4f69109ad,
    type: 3}
  m_PrefabInstance: {fileID: 786525327}
  m_PrefabAsset: {fileID: 0}
--- !u!1 &786525329 stripped
GameObject:
  m_CorrespondingSourceObject: {fileID: 475622385114009340, guid: 2f7690838b5122f439aba4d4f69109ad,
    type: 3}
  m_PrefabInstance: {fileID: 786525327}
  m_PrefabAsset: {fileID: 0}
--- !u!1 &985242534
GameObject:
  m_ObjectHideFlags: 0
  m_CorrespondingSourceObject: {fileID: 0}
  m_PrefabInstance: {fileID: 0}
  m_PrefabAsset: {fileID: 0}
  serializedVersion: 6
  m_Component:
  - component: {fileID: 985242536}
  - component: {fileID: 985242535}
  m_Layer: 0
  m_Name: Directional Light
  m_TagString: Untagged
  m_Icon: {fileID: 0}
  m_NavMeshLayer: 0
  m_StaticEditorFlags: 0
  m_IsActive: 1
--- !u!108 &985242535
Light:
  m_ObjectHideFlags: 0
  m_CorrespondingSourceObject: {fileID: 0}
  m_PrefabInstance: {fileID: 0}
  m_PrefabAsset: {fileID: 0}
  m_GameObject: {fileID: 985242534}
  m_Enabled: 1
  serializedVersion: 10
  m_Type: 1
  m_Shape: 0
  m_Color: {r: 1, g: 0.95686275, b: 0.8392157, a: 1}
  m_Intensity: 1
  m_Range: 10
  m_SpotAngle: 30
  m_InnerSpotAngle: 21.80208
  m_CookieSize: 10
  m_Shadows:
    m_Type: 2
    m_Resolution: -1
    m_CustomResolution: -1
    m_Strength: 1
    m_Bias: 0.05
    m_NormalBias: 0.4
    m_NearPlane: 0.2
    m_CullingMatrixOverride:
      e00: 1
      e01: 0
      e02: 0
      e03: 0
      e10: 0
      e11: 1
      e12: 0
      e13: 0
      e20: 0
      e21: 0
      e22: 1
      e23: 0
      e30: 0
      e31: 0
      e32: 0
      e33: 1
    m_UseCullingMatrixOverride: 0
  m_Cookie: {fileID: 0}
  m_DrawHalo: 0
  m_Flare: {fileID: 0}
  m_RenderMode: 0
  m_CullingMask:
    serializedVersion: 2
    m_Bits: 4294967295
  m_RenderingLayerMask: 1
  m_Lightmapping: 4
  m_LightShadowCasterMode: 0
  m_AreaSize: {x: 1, y: 1}
  m_BounceIntensity: 1
  m_ColorTemperature: 6570
  m_UseColorTemperature: 0
  m_BoundingSphereOverride: {x: 0, y: 0, z: 0, w: 0}
  m_UseBoundingSphereOverride: 0
  m_ShadowRadius: 0
  m_ShadowAngle: 0
--- !u!4 &985242536
Transform:
  m_ObjectHideFlags: 0
  m_CorrespondingSourceObject: {fileID: 0}
  m_PrefabInstance: {fileID: 0}
  m_PrefabAsset: {fileID: 0}
  m_GameObject: {fileID: 985242534}
  m_LocalRotation: {x: 0.40821788, y: -0.23456968, z: 0.10938163, w: 0.8754261}
  m_LocalPosition: {x: 0, y: 3, z: 0}
  m_LocalScale: {x: 1, y: 1, z: 1}
  m_Children: []
  m_Father: {fileID: 0}
  m_RootOrder: 1
  m_LocalEulerAnglesHint: {x: 50, y: -30, z: 0}
--- !u!1001 &4960784041249398711
PrefabInstance:
  m_ObjectHideFlags: 0
  serializedVersion: 2
  m_Modification:
    m_TransformParent: {fileID: 0}
    m_Modifications:
    - target: {fileID: 1853597328, guid: fe47081b33bbf1442a84131b39940e3a, type: 3}
      propertyPath: m_IsActive
      value: 0
      objectReference: {fileID: 0}
    - target: {fileID: 2121903292, guid: fe47081b33bbf1442a84131b39940e3a, type: 3}
      propertyPath: m_IsActive
      value: 0
      objectReference: {fileID: 0}
    - target: {fileID: 392385474717315715, guid: fe47081b33bbf1442a84131b39940e3a,
        type: 3}
      propertyPath: availableUnits.Array.size
      value: 1
      objectReference: {fileID: 0}
    - target: {fileID: 576566670653587532, guid: fe47081b33bbf1442a84131b39940e3a,
        type: 3}
      propertyPath: m_AnchoredPosition.y
      value: -0.0000076293945
      objectReference: {fileID: 0}
    - target: {fileID: 682076674213969948, guid: fe47081b33bbf1442a84131b39940e3a,
        type: 3}
      propertyPath: m_AnchorMax.y
      value: 0
      objectReference: {fileID: 0}
    - target: {fileID: 682076674213969948, guid: fe47081b33bbf1442a84131b39940e3a,
        type: 3}
      propertyPath: m_AnchorMin.y
      value: 0
      objectReference: {fileID: 0}
    - target: {fileID: 682076674213969948, guid: fe47081b33bbf1442a84131b39940e3a,
        type: 3}
      propertyPath: m_SizeDelta.x
      value: 0
      objectReference: {fileID: 0}
    - target: {fileID: 682076674213969948, guid: fe47081b33bbf1442a84131b39940e3a,
        type: 3}
      propertyPath: m_SizeDelta.y
      value: 0
      objectReference: {fileID: 0}
    - target: {fileID: 682076674213969948, guid: fe47081b33bbf1442a84131b39940e3a,
        type: 3}
      propertyPath: m_AnchoredPosition.x
      value: 0
      objectReference: {fileID: 0}
    - target: {fileID: 682076674213969948, guid: fe47081b33bbf1442a84131b39940e3a,
        type: 3}
      propertyPath: m_AnchoredPosition.y
      value: 0
      objectReference: {fileID: 0}
    - target: {fileID: 707271939400091014, guid: fe47081b33bbf1442a84131b39940e3a,
        type: 3}
      propertyPath: m_AnchorMax.y
      value: 0
      objectReference: {fileID: 0}
    - target: {fileID: 707271939400091014, guid: fe47081b33bbf1442a84131b39940e3a,
        type: 3}
      propertyPath: m_AnchorMin.y
      value: 0
      objectReference: {fileID: 0}
    - target: {fileID: 707271939400091014, guid: fe47081b33bbf1442a84131b39940e3a,
        type: 3}
      propertyPath: m_SizeDelta.x
      value: 0
      objectReference: {fileID: 0}
    - target: {fileID: 707271939400091014, guid: fe47081b33bbf1442a84131b39940e3a,
        type: 3}
      propertyPath: m_SizeDelta.y
      value: 0
      objectReference: {fileID: 0}
    - target: {fileID: 707271939400091014, guid: fe47081b33bbf1442a84131b39940e3a,
        type: 3}
      propertyPath: m_AnchoredPosition.x
      value: 0
      objectReference: {fileID: 0}
    - target: {fileID: 707271939400091014, guid: fe47081b33bbf1442a84131b39940e3a,
        type: 3}
      propertyPath: m_AnchoredPosition.y
      value: 0
      objectReference: {fileID: 0}
    - target: {fileID: 713837885110255391, guid: fe47081b33bbf1442a84131b39940e3a,
        type: 3}
      propertyPath: m_AnchorMax.y
      value: 0
      objectReference: {fileID: 0}
    - target: {fileID: 713837885110255391, guid: fe47081b33bbf1442a84131b39940e3a,
        type: 3}
      propertyPath: m_AnchorMin.y
      value: 0
      objectReference: {fileID: 0}
    - target: {fileID: 713837885110255391, guid: fe47081b33bbf1442a84131b39940e3a,
        type: 3}
      propertyPath: m_SizeDelta.x
      value: 0
      objectReference: {fileID: 0}
    - target: {fileID: 713837885110255391, guid: fe47081b33bbf1442a84131b39940e3a,
        type: 3}
      propertyPath: m_SizeDelta.y
      value: 0
      objectReference: {fileID: 0}
    - target: {fileID: 713837885110255391, guid: fe47081b33bbf1442a84131b39940e3a,
        type: 3}
      propertyPath: m_AnchoredPosition.x
      value: 0
      objectReference: {fileID: 0}
    - target: {fileID: 713837885110255391, guid: fe47081b33bbf1442a84131b39940e3a,
        type: 3}
      propertyPath: m_AnchoredPosition.y
      value: 0
      objectReference: {fileID: 0}
    - target: {fileID: 946932998295052319, guid: fe47081b33bbf1442a84131b39940e3a,
        type: 3}
      propertyPath: m_AnchorMax.y
      value: 0
      objectReference: {fileID: 0}
    - target: {fileID: 946932998295052319, guid: fe47081b33bbf1442a84131b39940e3a,
        type: 3}
      propertyPath: m_AnchorMin.y
      value: 0
      objectReference: {fileID: 0}
    - target: {fileID: 946932998295052319, guid: fe47081b33bbf1442a84131b39940e3a,
        type: 3}
      propertyPath: m_SizeDelta.x
      value: 0
      objectReference: {fileID: 0}
    - target: {fileID: 946932998295052319, guid: fe47081b33bbf1442a84131b39940e3a,
        type: 3}
      propertyPath: m_SizeDelta.y
      value: 0
      objectReference: {fileID: 0}
    - target: {fileID: 946932998295052319, guid: fe47081b33bbf1442a84131b39940e3a,
        type: 3}
      propertyPath: m_AnchoredPosition.x
      value: 0
      objectReference: {fileID: 0}
    - target: {fileID: 946932998295052319, guid: fe47081b33bbf1442a84131b39940e3a,
        type: 3}
      propertyPath: m_AnchoredPosition.y
      value: 0
      objectReference: {fileID: 0}
    - target: {fileID: 1216380895565920269, guid: fe47081b33bbf1442a84131b39940e3a,
        type: 3}
      propertyPath: m_AnchoredPosition.x
      value: 197.90991
      objectReference: {fileID: 0}
    - target: {fileID: 1216380895565920269, guid: fe47081b33bbf1442a84131b39940e3a,
        type: 3}
      propertyPath: m_AnchoredPosition.y
      value: -23.621948
      objectReference: {fileID: 0}
    - target: {fileID: 1258059279835473600, guid: fe47081b33bbf1442a84131b39940e3a,
        type: 3}
      propertyPath: m_Name
      value: Simulation_GAME_MODE
      objectReference: {fileID: 0}
    - target: {fileID: 1258059279835473630, guid: fe47081b33bbf1442a84131b39940e3a,
        type: 3}
      propertyPath: m_RootOrder
      value: 2
      objectReference: {fileID: 0}
    - target: {fileID: 1258059279835473630, guid: fe47081b33bbf1442a84131b39940e3a,
        type: 3}
      propertyPath: m_LocalPosition.x
      value: 0
      objectReference: {fileID: 0}
    - target: {fileID: 1258059279835473630, guid: fe47081b33bbf1442a84131b39940e3a,
        type: 3}
      propertyPath: m_LocalPosition.y
      value: 0
      objectReference: {fileID: 0}
    - target: {fileID: 1258059279835473630, guid: fe47081b33bbf1442a84131b39940e3a,
        type: 3}
      propertyPath: m_LocalPosition.z
      value: 0
      objectReference: {fileID: 0}
    - target: {fileID: 1258059279835473630, guid: fe47081b33bbf1442a84131b39940e3a,
        type: 3}
      propertyPath: m_LocalRotation.w
      value: 1
      objectReference: {fileID: 0}
    - target: {fileID: 1258059279835473630, guid: fe47081b33bbf1442a84131b39940e3a,
        type: 3}
      propertyPath: m_LocalRotation.x
      value: 0
      objectReference: {fileID: 0}
    - target: {fileID: 1258059279835473630, guid: fe47081b33bbf1442a84131b39940e3a,
        type: 3}
      propertyPath: m_LocalRotation.y
      value: 0
      objectReference: {fileID: 0}
    - target: {fileID: 1258059279835473630, guid: fe47081b33bbf1442a84131b39940e3a,
        type: 3}
      propertyPath: m_LocalRotation.z
      value: 0
      objectReference: {fileID: 0}
    - target: {fileID: 1258059279835473630, guid: fe47081b33bbf1442a84131b39940e3a,
        type: 3}
      propertyPath: m_LocalEulerAnglesHint.x
      value: 0
      objectReference: {fileID: 0}
    - target: {fileID: 1258059279835473630, guid: fe47081b33bbf1442a84131b39940e3a,
        type: 3}
      propertyPath: m_LocalEulerAnglesHint.y
      value: 0
      objectReference: {fileID: 0}
    - target: {fileID: 1258059279835473630, guid: fe47081b33bbf1442a84131b39940e3a,
        type: 3}
      propertyPath: m_LocalEulerAnglesHint.z
      value: 0
      objectReference: {fileID: 0}
    - target: {fileID: 1258059279835473631, guid: fe47081b33bbf1442a84131b39940e3a,
        type: 3}
      propertyPath: gridGap
      value: 2
      objectReference: {fileID: 0}
    - target: {fileID: 1456812219902071366, guid: fe47081b33bbf1442a84131b39940e3a,
        type: 3}
      propertyPath: m_AnchorMax.y
      value: 0
      objectReference: {fileID: 0}
    - target: {fileID: 1456812219902071366, guid: fe47081b33bbf1442a84131b39940e3a,
        type: 3}
      propertyPath: m_AnchorMin.y
      value: 0
      objectReference: {fileID: 0}
    - target: {fileID: 1456812219902071366, guid: fe47081b33bbf1442a84131b39940e3a,
        type: 3}
      propertyPath: m_SizeDelta.x
      value: 0
      objectReference: {fileID: 0}
    - target: {fileID: 1456812219902071366, guid: fe47081b33bbf1442a84131b39940e3a,
        type: 3}
      propertyPath: m_SizeDelta.y
      value: 0
      objectReference: {fileID: 0}
    - target: {fileID: 1456812219902071366, guid: fe47081b33bbf1442a84131b39940e3a,
        type: 3}
      propertyPath: m_AnchoredPosition.x
      value: 0
      objectReference: {fileID: 0}
    - target: {fileID: 1456812219902071366, guid: fe47081b33bbf1442a84131b39940e3a,
        type: 3}
      propertyPath: m_AnchoredPosition.y
      value: 0
      objectReference: {fileID: 0}
    - target: {fileID: 2140585928454355908, guid: fe47081b33bbf1442a84131b39940e3a,
        type: 3}
      propertyPath: m_AnchorMax.y
      value: 0
      objectReference: {fileID: 0}
    - target: {fileID: 2140585928454355908, guid: fe47081b33bbf1442a84131b39940e3a,
        type: 3}
      propertyPath: m_AnchorMin.y
      value: 0
      objectReference: {fileID: 0}
    - target: {fileID: 2140585928454355908, guid: fe47081b33bbf1442a84131b39940e3a,
        type: 3}
      propertyPath: m_SizeDelta.x
      value: 0
      objectReference: {fileID: 0}
    - target: {fileID: 2140585928454355908, guid: fe47081b33bbf1442a84131b39940e3a,
        type: 3}
      propertyPath: m_SizeDelta.y
      value: 0
      objectReference: {fileID: 0}
    - target: {fileID: 2140585928454355908, guid: fe47081b33bbf1442a84131b39940e3a,
        type: 3}
      propertyPath: m_AnchoredPosition.x
      value: 0
      objectReference: {fileID: 0}
    - target: {fileID: 2140585928454355908, guid: fe47081b33bbf1442a84131b39940e3a,
        type: 3}
      propertyPath: m_AnchoredPosition.y
      value: 0
      objectReference: {fileID: 0}
    - target: {fileID: 2798580773595131470, guid: fe47081b33bbf1442a84131b39940e3a,
        type: 3}
      propertyPath: m_AnchorMax.y
      value: 0
      objectReference: {fileID: 0}
    - target: {fileID: 2798580773595131470, guid: fe47081b33bbf1442a84131b39940e3a,
        type: 3}
      propertyPath: m_AnchorMin.y
      value: 0
      objectReference: {fileID: 0}
    - target: {fileID: 2798580773595131470, guid: fe47081b33bbf1442a84131b39940e3a,
        type: 3}
      propertyPath: m_SizeDelta.x
      value: 0
      objectReference: {fileID: 0}
    - target: {fileID: 2798580773595131470, guid: fe47081b33bbf1442a84131b39940e3a,
        type: 3}
      propertyPath: m_SizeDelta.y
      value: 0
      objectReference: {fileID: 0}
    - target: {fileID: 2798580773595131470, guid: fe47081b33bbf1442a84131b39940e3a,
        type: 3}
      propertyPath: m_AnchoredPosition.x
      value: 0
      objectReference: {fileID: 0}
    - target: {fileID: 2798580773595131470, guid: fe47081b33bbf1442a84131b39940e3a,
        type: 3}
      propertyPath: m_AnchoredPosition.y
      value: 0
      objectReference: {fileID: 0}
    - target: {fileID: 3108624589353289044, guid: fe47081b33bbf1442a84131b39940e3a,
        type: 3}
      propertyPath: m_AnchorMax.y
      value: 0
      objectReference: {fileID: 0}
    - target: {fileID: 3108624589353289044, guid: fe47081b33bbf1442a84131b39940e3a,
        type: 3}
      propertyPath: m_AnchorMin.y
      value: 0
      objectReference: {fileID: 0}
    - target: {fileID: 3108624589353289044, guid: fe47081b33bbf1442a84131b39940e3a,
        type: 3}
      propertyPath: m_SizeDelta.x
      value: 0
      objectReference: {fileID: 0}
    - target: {fileID: 3108624589353289044, guid: fe47081b33bbf1442a84131b39940e3a,
        type: 3}
      propertyPath: m_SizeDelta.y
      value: 0
      objectReference: {fileID: 0}
    - target: {fileID: 3108624589353289044, guid: fe47081b33bbf1442a84131b39940e3a,
        type: 3}
      propertyPath: m_AnchoredPosition.x
      value: 0
      objectReference: {fileID: 0}
    - target: {fileID: 3108624589353289044, guid: fe47081b33bbf1442a84131b39940e3a,
        type: 3}
      propertyPath: m_AnchoredPosition.y
      value: 0
      objectReference: {fileID: 0}
    - target: {fileID: 3396632308839558524, guid: fe47081b33bbf1442a84131b39940e3a,
        type: 3}
      propertyPath: m_AnchorMax.y
      value: 0
      objectReference: {fileID: 0}
    - target: {fileID: 3396632308839558524, guid: fe47081b33bbf1442a84131b39940e3a,
        type: 3}
      propertyPath: m_AnchorMin.y
      value: 0
      objectReference: {fileID: 0}
    - target: {fileID: 3396632308839558524, guid: fe47081b33bbf1442a84131b39940e3a,
        type: 3}
      propertyPath: m_SizeDelta.x
      value: 0
      objectReference: {fileID: 0}
    - target: {fileID: 3396632308839558524, guid: fe47081b33bbf1442a84131b39940e3a,
        type: 3}
      propertyPath: m_SizeDelta.y
      value: 0
      objectReference: {fileID: 0}
    - target: {fileID: 3396632308839558524, guid: fe47081b33bbf1442a84131b39940e3a,
        type: 3}
      propertyPath: m_AnchoredPosition.x
      value: 0
      objectReference: {fileID: 0}
    - target: {fileID: 3396632308839558524, guid: fe47081b33bbf1442a84131b39940e3a,
        type: 3}
      propertyPath: m_AnchoredPosition.y
      value: 0
      objectReference: {fileID: 0}
    - target: {fileID: 3581419614031630702, guid: fe47081b33bbf1442a84131b39940e3a,
        type: 3}
      propertyPath: m_IsActive
      value: 0
      objectReference: {fileID: 0}
    - target: {fileID: 3722227584923991964, guid: fe47081b33bbf1442a84131b39940e3a,
        type: 3}
      propertyPath: m_IsActive
      value: 0
      objectReference: {fileID: 0}
    - target: {fileID: 4792012606146093963, guid: fe47081b33bbf1442a84131b39940e3a,
        type: 3}
      propertyPath: m_AnchorMax.y
      value: 0
      objectReference: {fileID: 0}
    - target: {fileID: 4792012606146093963, guid: fe47081b33bbf1442a84131b39940e3a,
        type: 3}
      propertyPath: m_AnchorMin.y
      value: 0
      objectReference: {fileID: 0}
    - target: {fileID: 4792012606146093963, guid: fe47081b33bbf1442a84131b39940e3a,
        type: 3}
      propertyPath: m_SizeDelta.x
      value: 0
      objectReference: {fileID: 0}
    - target: {fileID: 4792012606146093963, guid: fe47081b33bbf1442a84131b39940e3a,
        type: 3}
      propertyPath: m_SizeDelta.y
      value: 0
      objectReference: {fileID: 0}
    - target: {fileID: 4792012606146093963, guid: fe47081b33bbf1442a84131b39940e3a,
        type: 3}
      propertyPath: m_AnchoredPosition.x
      value: 0
      objectReference: {fileID: 0}
    - target: {fileID: 4792012606146093963, guid: fe47081b33bbf1442a84131b39940e3a,
        type: 3}
      propertyPath: m_AnchoredPosition.y
      value: 0
      objectReference: {fileID: 0}
    - target: {fileID: 5457694878593026644, guid: fe47081b33bbf1442a84131b39940e3a,
        type: 3}
      propertyPath: maxSpawnableUnitsForStar
      value: 14
      objectReference: {fileID: 0}
    - target: {fileID: 5662209834988347420, guid: fe47081b33bbf1442a84131b39940e3a,
        type: 3}
      propertyPath: settings
      value: 
      objectReference: {fileID: 11400000, guid: 3789d6f21ec77aa42a620571ddec3d02,
        type: 2}
    - target: {fileID: 5662209834988347420, guid: fe47081b33bbf1442a84131b39940e3a,
        type: 3}
      propertyPath: gameDurationInSeconds
      value: 60
      objectReference: {fileID: 0}
    - target: {fileID: 5822365848807793056, guid: fe47081b33bbf1442a84131b39940e3a,
        type: 3}
      propertyPath: m_AnchorMax.y
      value: 0
      objectReference: {fileID: 0}
    - target: {fileID: 5822365848807793056, guid: fe47081b33bbf1442a84131b39940e3a,
        type: 3}
      propertyPath: m_AnchorMin.y
      value: 0
      objectReference: {fileID: 0}
    - target: {fileID: 5822365848807793056, guid: fe47081b33bbf1442a84131b39940e3a,
        type: 3}
      propertyPath: m_SizeDelta.x
      value: 0
      objectReference: {fileID: 0}
    - target: {fileID: 5822365848807793056, guid: fe47081b33bbf1442a84131b39940e3a,
        type: 3}
      propertyPath: m_SizeDelta.y
      value: 0
      objectReference: {fileID: 0}
    - target: {fileID: 5822365848807793056, guid: fe47081b33bbf1442a84131b39940e3a,
        type: 3}
      propertyPath: m_AnchoredPosition.x
      value: 0
      objectReference: {fileID: 0}
    - target: {fileID: 5822365848807793056, guid: fe47081b33bbf1442a84131b39940e3a,
        type: 3}
      propertyPath: m_AnchoredPosition.y
      value: 0
      objectReference: {fileID: 0}
    - target: {fileID: 6042453971849097424, guid: fe47081b33bbf1442a84131b39940e3a,
        type: 3}
      propertyPath: m_AnchorMax.y
      value: 0
      objectReference: {fileID: 0}
    - target: {fileID: 6042453971849097424, guid: fe47081b33bbf1442a84131b39940e3a,
        type: 3}
      propertyPath: m_AnchorMin.y
      value: 0
      objectReference: {fileID: 0}
    - target: {fileID: 6042453971849097424, guid: fe47081b33bbf1442a84131b39940e3a,
        type: 3}
      propertyPath: m_SizeDelta.x
      value: 0
      objectReference: {fileID: 0}
    - target: {fileID: 6042453971849097424, guid: fe47081b33bbf1442a84131b39940e3a,
        type: 3}
      propertyPath: m_SizeDelta.y
      value: 0
      objectReference: {fileID: 0}
    - target: {fileID: 6042453971849097424, guid: fe47081b33bbf1442a84131b39940e3a,
        type: 3}
      propertyPath: m_AnchoredPosition.x
      value: 0
      objectReference: {fileID: 0}
    - target: {fileID: 6042453971849097424, guid: fe47081b33bbf1442a84131b39940e3a,
        type: 3}
      propertyPath: m_AnchoredPosition.y
      value: 0
      objectReference: {fileID: 0}
    - target: {fileID: 6515893390524105407, guid: fe47081b33bbf1442a84131b39940e3a,
        type: 3}
      propertyPath: m_AnchorMax.y
      value: 0
      objectReference: {fileID: 0}
    - target: {fileID: 6515893390524105407, guid: fe47081b33bbf1442a84131b39940e3a,
        type: 3}
      propertyPath: m_AnchorMin.y
      value: 0
      objectReference: {fileID: 0}
    - target: {fileID: 6515893390524105407, guid: fe47081b33bbf1442a84131b39940e3a,
        type: 3}
      propertyPath: m_SizeDelta.x
      value: 0
      objectReference: {fileID: 0}
    - target: {fileID: 6515893390524105407, guid: fe47081b33bbf1442a84131b39940e3a,
        type: 3}
      propertyPath: m_SizeDelta.y
      value: 0
      objectReference: {fileID: 0}
    - target: {fileID: 6515893390524105407, guid: fe47081b33bbf1442a84131b39940e3a,
        type: 3}
      propertyPath: m_AnchoredPosition.x
      value: 0
      objectReference: {fileID: 0}
    - target: {fileID: 6515893390524105407, guid: fe47081b33bbf1442a84131b39940e3a,
        type: 3}
      propertyPath: m_AnchoredPosition.y
      value: 0
      objectReference: {fileID: 0}
    - target: {fileID: 6543125093527809803, guid: fe47081b33bbf1442a84131b39940e3a,
        type: 3}
      propertyPath: m_AnchoredPosition.x
      value: 32.19995
      objectReference: {fileID: 0}
    - target: {fileID: 6897551627427792214, guid: fe47081b33bbf1442a84131b39940e3a,
        type: 3}
      propertyPath: m_IsActive
      value: 0
      objectReference: {fileID: 0}
    - target: {fileID: 7220216169526598654, guid: fe47081b33bbf1442a84131b39940e3a,
        type: 3}
      propertyPath: m_IsActive
      value: 0
      objectReference: {fileID: 0}
    - target: {fileID: 7394856297099287033, guid: fe47081b33bbf1442a84131b39940e3a,
        type: 3}
      propertyPath: m_AnchorMax.y
      value: 0
      objectReference: {fileID: 0}
    - target: {fileID: 7394856297099287033, guid: fe47081b33bbf1442a84131b39940e3a,
        type: 3}
      propertyPath: m_AnchorMin.y
      value: 0
      objectReference: {fileID: 0}
    - target: {fileID: 7394856297099287033, guid: fe47081b33bbf1442a84131b39940e3a,
        type: 3}
      propertyPath: m_SizeDelta.x
      value: 0
      objectReference: {fileID: 0}
    - target: {fileID: 7394856297099287033, guid: fe47081b33bbf1442a84131b39940e3a,
        type: 3}
      propertyPath: m_SizeDelta.y
      value: 0
      objectReference: {fileID: 0}
    - target: {fileID: 7394856297099287033, guid: fe47081b33bbf1442a84131b39940e3a,
        type: 3}
      propertyPath: m_AnchoredPosition.x
      value: 0
      objectReference: {fileID: 0}
    - target: {fileID: 7394856297099287033, guid: fe47081b33bbf1442a84131b39940e3a,
        type: 3}
      propertyPath: m_AnchoredPosition.y
      value: 0
      objectReference: {fileID: 0}
    - target: {fileID: 7870294342045768159, guid: fe47081b33bbf1442a84131b39940e3a,
        type: 3}
      propertyPath: m_Volume
      value: 0.1
      objectReference: {fileID: 0}
    - target: {fileID: 7870294342045768159, guid: fe47081b33bbf1442a84131b39940e3a,
        type: 3}
      propertyPath: OutputAudioMixerGroup
      value: 
      objectReference: {fileID: -3356743217393144212, guid: 53bb1c2e4948a5d4b83590e092909433,
        type: 2}
    m_RemovedComponents: []
  m_SourcePrefab: {fileID: 100100000, guid: fe47081b33bbf1442a84131b39940e3a, type: 3}
