%YAML 1.1
%TAG !u! tag:unity3d.com,2011:
--- !u!1045 &1
EditorBuildSettings:
  m_ObjectHideFlags: 0
  serializedVersion: 2
  m_Scenes:
  - enabled: 1
    path: Assets/Scenes/Menu/MainMenu.unity
    guid: 24d574cf287d2874fb50d10b04e00a70
  - enabled: 1
    path: Assets/Scenes/Levels/1-1/1-1.unity
    guid: 79741945366d2bc48933cb486fe12720
  - enabled: 1
    path: Assets/Scenes/Levels/1-2/1-2.unity
    guid: a85ff04d9471a5e41aa8ccd5cadc763a
  - enabled: 1
    path: Assets/Scenes/Levels/1-3/1-3.unity
    guid: f19bf9e3e82b51b4980c50859009e0b9
  - enabled: 1
    path: Assets/Scenes/Levels/1-4/1-4.unity
    guid: acfe9920cd565ad46ad1a16d05a0e3ff
  - enabled: 1
    path: Assets/Scenes/Levels/1-5/1-5.unity
    guid: 47e31c3cc36662d418f8eb7c92c4bae2
  - enabled: 1
    path: Assets/Scenes/Levels/ARENA/ARENA.unity
    guid: 195537a7cf855d34b91ff9d9586d4eb6
  m_configObjects: {}
