%YAML 1.1
%TAG !u! tag:unity3d.com,2011:
--- !u!114 &11400000
MonoBehaviour:
  m_ObjectHideFlags: 0
  m_CorrespondingSourceObject: {fileID: 0}
  m_PrefabInstance: {fileID: 0}
  m_PrefabAsset: {fileID: 0}
  m_GameObject: {fileID: 0}
  m_Enabled: 1
  m_EditorHideFlags: 0
  m_Script: {fileID: 11500000, guid: 65f3e7b5a7bb4fbdac53229860c7d6b0, type: 3}
  m_Name: LevelSettings
  m_EditorClassIdentifier: 
  maxSpawnableUnits: 24
  playerUnitSettings: {fileID: 11400000, guid: bbad897333cf68d4481e5594cee595f4, type: 2}
  startTitle: Level 2
  startText: Archers time! Fight against ranged units!
  levelId: 1-2
