%YAML 1.1
%TAG !u! tag:unity3d.com,2011:
--- !u!114 &11400000
MonoBehaviour:
  m_ObjectHideFlags: 0
  m_CorrespondingSourceObject: {fileID: 0}
  m_PrefabInstance: {fileID: 0}
  m_PrefabAsset: {fileID: 0}
  m_GameObject: {fileID: 0}
  m_Enabled: 1
  m_EditorHideFlags: 0
  m_Script: {fileID: 11500000, guid: 0b8340e17de73e14db732ed28b07132e, type: 3}
  m_Name: HeroSimulationIaSpawnable
  m_EditorClassIdentifier: 
  model: 5
  spawnProbability: 10
  affectedByGameFlow: 1
